<svg xmlns="http://www.w3.org/2000/svg" width="14" height="14" viewBox="0 0 14 14">

<g id="icon-bg" data-size="360 60">
    <path fill-rule="evenodd"  d="M350.000,60.000 L330.000,60.000 L340.000,30.000 L330.000,-0.000 L350.000,-0.000 L360.000,30.000 L350.000,60.000 ZM320.000,60.000 L300.000,60.000 L310.000,30.000 L300.000,-0.000 L320.000,-0.000 L330.000,30.000 L320.000,60.000 ZM290.000,60.000 L270.000,60.000 L4.000,60.000 C1.791,60.000 -0.000,58.209 -0.000,56.000 L-0.000,30.000 C-0.000,13.432 13.431,-0.000 30.000,-0.000 L270.000,-0.000 L290.000,-0.000 L300.000,30.000 L290.000,60.000 Z"/>
</g>

<g id="menu-main" data-size="18 18">
    <path fill-rule="evenodd" d="M-0.000,-0.000 C3.333,-0.000 6.667,-0.000 10.000,-0.000 C10.000,1.333 10.000,2.667 10.000,4.000 C6.667,4.000 3.333,4.000 -0.000,4.000 C-0.000,2.667 -0.000,1.333 -0.000,-0.000 ZM-0.000,7.000 C5.999,7.000 12.001,7.000 18.000,7.000 C18.000,8.333 18.000,9.667 18.000,11.000 C12.001,11.000 5.999,11.000 -0.000,11.000 C-0.000,9.667 -0.000,8.333 -0.000,7.000 ZM-0.000,14.000 C4.666,14.000 9.334,14.000 14.000,14.000 C14.000,15.333 14.000,16.667 14.000,18.000 C9.334,18.000 4.666,18.000 -0.000,18.000 C-0.000,16.667 -0.000,15.333 -0.000,14.000 Z"/>
</g>

<g id="icon-area" data-size="19 19">
    <path d="M16.320,4.220 L11.370,9.170 L9.830,7.630 L14.780,2.679 L12.800,0.700 L18.300,0.700 L18.300,6.200 L16.320,4.220 ZM11.700,4.000 L4.000,4.000 L4.000,11.700 L2.900,12.800 L2.900,2.900 L12.800,2.900 L11.700,4.000 ZM9.170,11.370 L4.220,16.320 L6.200,18.300 L0.700,18.300 L0.700,12.800 L2.680,14.779 L7.630,9.829 L9.170,11.370 ZM16.100,6.200 L16.100,16.100 L6.200,16.100 L7.300,15.000 L15.000,15.000 L15.000,7.300 L16.100,6.200 Z"/>
</g>

<g id="icon-office" data-size="14 18">
    <path d="M11.080,2.471 L11.080,0.839 L2.920,0.839 L2.920,2.471 L0.472,2.471 L0.472,17.160 L5.368,17.160 L5.368,15.527 L8.632,15.527 L8.632,17.160 L13.528,17.160 L13.528,2.471 L11.080,2.471 ZM6.184,13.079 L4.552,13.079 L4.552,11.447 L6.184,11.447 L6.184,13.079 ZM6.184,9.815 L4.552,9.815 L4.552,8.183 L6.184,8.183 L6.184,9.815 ZM6.184,6.551 L4.552,6.551 L4.552,4.919 L6.184,4.919 L6.184,6.551 ZM9.448,13.079 L7.816,13.079 L7.816,11.447 L9.448,11.447 L9.448,13.079 ZM9.448,9.815 L7.816,9.815 L7.816,8.183 L9.448,8.183 L9.448,9.815 ZM9.448,6.551 L7.816,6.551 L7.816,4.919 L9.448,4.919 L9.448,6.551 Z"/>
</g>

<g id="icon-metro" data-size="15 22">
    <path d="M11.769,16.359 L11.727,16.275 C11.727,16.247 11.734,16.233 11.748,16.233 C11.762,16.233 11.769,16.219 11.769,16.191 C12.216,16.023 12.620,15.799 12.983,15.519 C13.346,15.239 13.598,14.833 13.737,14.301 L13.758,14.154 L13.821,13.881 L13.821,2.919 C13.821,2.639 13.745,2.358 13.591,2.079 C13.437,1.799 13.242,1.547 13.004,1.323 C12.767,1.099 12.502,0.910 12.209,0.756 C11.915,0.602 11.643,0.525 11.392,0.525 L3.560,0.525 C3.308,0.525 3.036,0.595 2.743,0.734 C2.450,0.875 2.184,1.057 1.947,1.281 C1.710,1.505 1.514,1.757 1.361,2.036 C1.207,2.317 1.130,2.583 1.130,2.835 L1.130,13.965 C1.130,14.161 1.172,14.357 1.256,14.553 C1.340,14.749 1.451,14.938 1.591,15.120 C1.731,15.302 1.884,15.470 2.052,15.624 C2.219,15.778 2.387,15.897 2.554,15.981 C2.638,16.010 2.771,16.058 2.952,16.128 C3.134,16.198 3.224,16.247 3.224,16.275 L-0.001,21.147 L1.884,21.147 L4.230,17.745 L10.680,17.745 L13.025,21.147 L14.910,21.147 L11.769,16.359 L11.769,16.359 ZM5.612,1.491 C5.612,1.407 5.647,1.323 5.717,1.238 C5.786,1.155 5.863,1.113 5.947,1.113 L8.962,1.113 C8.991,1.113 9.046,1.141 9.130,1.197 C9.214,1.253 9.256,1.309 9.256,1.365 L9.256,2.541 C9.256,2.625 9.221,2.695 9.151,2.751 C9.081,2.807 9.018,2.835 8.962,2.835 L5.947,2.835 C5.891,2.807 5.849,2.779 5.821,2.751 C5.765,2.723 5.724,2.680 5.696,2.625 C5.640,2.569 5.612,2.513 5.612,2.457 L5.612,1.491 L5.612,1.491 ZM2.596,4.683 C2.596,4.543 2.624,4.389 2.680,4.221 C2.764,4.081 2.861,3.941 2.973,3.801 C3.057,3.689 3.176,3.591 3.329,3.507 C3.483,3.423 3.643,3.381 3.811,3.381 L11.099,3.381 C11.210,3.381 11.350,3.423 11.517,3.507 C11.629,3.563 11.755,3.647 11.894,3.759 C12.006,3.843 12.090,3.955 12.146,4.095 C12.230,4.207 12.271,4.347 12.271,4.515 L12.271,6.993 C12.271,7.133 12.230,7.266 12.146,7.392 C12.062,7.518 11.964,7.637 11.852,7.749 C11.713,7.861 11.573,7.945 11.434,8.001 C11.322,8.057 11.182,8.085 11.015,8.085 L3.853,8.085 C3.825,8.085 3.783,8.078 3.727,8.064 C3.671,8.050 3.629,8.029 3.601,8.001 C3.322,7.973 3.085,7.840 2.889,7.602 C2.694,7.364 2.596,7.105 2.596,6.825 L2.596,4.683 L2.596,4.683 ZM4.753,14.385 C4.516,14.637 4.216,14.763 3.853,14.763 C3.490,14.763 3.197,14.637 2.973,14.385 C2.750,14.133 2.638,13.825 2.638,13.461 C2.638,13.125 2.757,12.838 2.994,12.600 C3.231,12.362 3.518,12.243 3.853,12.243 C4.216,12.243 4.516,12.355 4.753,12.579 C4.990,12.803 5.109,13.097 5.109,13.461 C5.109,13.825 4.991,14.133 4.753,14.385 ZM10.114,14.385 C9.877,14.133 9.758,13.825 9.758,13.461 C9.758,13.097 9.884,12.803 10.135,12.579 C10.387,12.355 10.680,12.243 11.015,12.243 C11.378,12.243 11.671,12.362 11.895,12.600 C12.118,12.838 12.230,13.125 12.230,13.461 C12.230,13.825 12.118,14.133 11.895,14.385 C11.671,14.637 11.378,14.763 11.015,14.763 C10.652,14.763 10.352,14.637 10.114,14.385 Z"/>
</g>

<g id="icon-sort" data-size="16 16">
    <path d="M6.007,15.173 L6.007,7.578 L0.702,1.430 C0.418,1.082 0.450,0.367 1.183,0.367 L15.334,0.367 C16.023,0.367 16.183,0.999 15.816,1.430 L10.639,7.416 L10.639,12.115 C10.639,12.306 10.575,12.469 10.412,12.597 L7.101,15.655 C6.718,15.939 6.007,15.786 6.007,15.173 ZM2.600,1.657 L7.136,6.902 C7.232,7.030 7.295,7.160 7.295,7.320 L7.295,13.724 L9.353,11.856 L9.353,7.192 C9.353,7.033 9.417,6.902 9.513,6.774 L13.918,1.657 L2.600,1.657 L2.600,1.657 Z"/>
</g>

<g id="icon-wallet" data-size="19 18">
    <path fill-rule="evenodd"  d="M17.747,12.652 L13.698,12.652 C13.310,12.652 12.995,12.338 12.995,11.951 L12.995,9.376 C12.995,8.988 13.310,8.674 13.698,8.674 L17.747,8.674 C18.135,8.674 18.450,8.988 18.450,9.376 L18.450,11.951 C18.450,12.338 18.135,12.652 17.747,12.652 ZM15.093,9.651 C14.533,9.651 14.079,10.104 14.079,10.663 C14.079,11.222 14.533,11.675 15.093,11.675 C15.653,11.675 16.107,11.222 16.107,10.663 C16.107,10.104 15.653,9.651 15.093,9.651 ZM13.698,7.825 C12.841,7.825 12.144,8.520 12.144,9.376 L12.144,11.951 C12.144,12.806 12.841,13.502 13.698,13.502 L17.747,13.502 C17.772,13.502 17.796,13.501 17.820,13.500 L17.820,16.066 C17.820,16.726 17.284,17.262 16.622,17.262 L1.765,17.262 C1.103,17.262 0.567,16.726 0.567,16.066 L0.567,5.261 C0.567,4.600 1.103,4.065 1.765,4.065 L16.622,4.065 C17.284,4.065 17.820,4.600 17.820,5.261 L17.820,7.826 C17.796,7.825 17.772,7.825 17.747,7.825 L13.698,7.825 ZM12.581,0.892 C13.392,0.625 14.267,1.064 14.536,1.874 L14.875,2.900 L6.493,2.900 L12.581,0.892 Z"/>
</g>

<g id="icon-type" data-size="14 18">
    <path  d="M11.080,2.471 L11.080,0.839 L2.920,0.839 L2.920,2.471 L0.472,2.471 L0.472,17.159 L5.368,17.159 L5.368,15.527 L8.632,15.527 L8.632,17.159 L13.528,17.159 L13.528,2.471 L11.080,2.471 ZM6.184,13.079 L4.552,13.079 L4.552,11.447 L6.184,11.447 L6.184,13.079 ZM6.184,9.815 L4.552,9.815 L4.552,8.183 L6.184,8.183 L6.184,9.815 ZM6.184,6.551 L4.552,6.551 L4.552,4.919 L6.184,4.919 L6.184,6.551 ZM9.448,13.079 L7.816,13.079 L7.816,11.447 L9.448,11.447 L9.448,13.079 ZM9.448,9.815 L7.816,9.815 L7.816,8.183 L9.448,8.183 L9.448,9.815 ZM9.448,6.551 L7.816,6.551 L7.816,4.919 L9.448,4.919 L9.448,6.551 Z"/>
</g>

<g id="icon-map" data-size="10 17">
    <path  d="M4.483,0.001 C7.555,-0.052 9.134,1.574 9.831,4.053 C10.002,4.660 10.070,5.711 9.908,6.420 C9.654,7.533 9.121,8.388 8.680,9.303 C8.066,10.581 7.451,11.860 6.837,13.138 C6.223,14.425 5.609,15.713 4.995,17.000 C4.986,17.000 4.977,17.000 4.969,17.000 C3.468,13.872 1.966,10.744 0.465,7.616 C-0.246,5.902 -0.056,3.790 0.798,2.394 C1.354,1.485 2.267,0.687 3.306,0.300 C3.698,0.200 4.090,0.101 4.483,0.001 ZM4.739,2.122 C4.474,2.186 4.210,2.249 3.945,2.313 C3.180,2.630 2.514,3.280 2.205,4.081 C1.360,6.271 3.104,8.908 5.302,8.514 C9.025,7.847 8.843,2.074 4.739,2.122 Z"/>
</g>

<g id="icon-district" data-size="12 19">
    <path d="M2.284,-0.000 C2.508,-0.000 2.731,-0.000 2.954,-0.000 C2.964,0.394 2.975,0.789 2.985,1.184 C3.127,1.093 3.269,1.002 3.411,0.910 C4.528,1.447 5.645,1.983 6.761,2.519 C6.761,2.914 6.761,3.308 6.761,3.703 C5.645,3.248 4.528,2.792 3.411,2.337 C3.411,7.860 3.411,13.386 3.411,18.909 C2.274,18.909 1.137,18.909 -0.000,18.909 C-0.000,13.649 -0.000,8.387 -0.000,3.126 C0.761,2.641 1.523,2.155 2.284,1.669 C2.284,1.113 2.284,0.556 2.284,-0.000 ZM2.863,2.883 C2.477,3.116 2.091,3.349 1.706,3.581 C1.706,4.148 1.706,4.715 1.706,5.281 C2.122,5.069 2.538,4.856 2.954,4.644 C2.964,4.319 3.015,2.980 2.863,2.883 ZM3.838,3.490 C4.315,3.693 4.792,3.895 5.269,4.097 C5.269,4.543 5.269,4.988 5.269,5.433 C5.259,5.433 5.249,5.433 5.239,5.433 C4.772,5.251 4.304,5.069 3.838,4.887 C3.838,4.421 3.838,3.956 3.838,3.490 ZM1.462,3.612 C1.066,3.844 0.670,4.077 0.274,4.310 C0.284,4.876 0.294,5.443 0.305,6.010 C0.711,5.787 1.117,5.564 1.523,5.342 C1.533,4.955 1.673,3.845 1.462,3.612 ZM2.863,5.554 C2.477,5.787 2.091,6.020 1.706,6.252 C1.716,6.819 1.726,7.386 1.736,7.952 C2.142,7.740 2.548,7.527 2.954,7.315 C2.964,6.990 3.015,5.651 2.863,5.554 ZM5.299,6.101 C5.777,6.303 6.254,6.505 6.731,6.708 C6.731,7.153 6.731,7.598 6.731,8.043 C6.721,8.043 6.711,8.043 6.700,8.043 C6.234,7.861 5.766,7.679 5.299,7.497 C5.299,7.031 5.299,6.566 5.299,6.101 ZM1.431,6.283 C1.046,6.515 0.660,6.748 0.274,6.981 C0.284,7.547 0.294,8.114 0.305,8.680 C0.711,8.448 1.117,8.215 1.523,7.982 C1.523,7.416 1.523,6.849 1.523,6.283 C1.492,6.283 1.462,6.283 1.431,6.283 ZM12.000,19.000 C11.777,19.000 11.553,19.000 11.330,19.000 C11.330,15.480 11.330,11.958 11.330,8.438 C10.792,8.215 10.254,7.992 9.716,7.770 C9.716,11.513 9.716,15.257 9.716,19.000 C8.944,19.000 8.172,19.000 7.401,19.000 C7.401,16.491 7.401,13.982 7.401,11.473 C7.401,10.654 7.229,8.829 7.462,8.286 C8.233,7.800 9.005,7.315 9.777,6.829 C10.518,7.203 11.259,7.578 12.000,7.952 C12.000,11.634 12.000,15.318 12.000,19.000 ZM4.843,8.043 C5.320,8.245 5.797,8.448 6.274,8.650 C6.274,9.095 6.274,9.540 6.274,9.986 C5.797,9.804 5.320,9.621 4.843,9.439 C4.843,8.974 4.843,8.508 4.843,8.043 ZM9.320,8.165 C9.066,8.316 8.812,8.468 8.558,8.620 C8.568,9.004 8.579,9.389 8.589,9.773 C8.863,9.621 9.137,9.470 9.411,9.318 C9.424,9.032 9.500,8.278 9.320,8.165 ZM2.893,8.195 C2.497,8.438 2.101,8.680 1.706,8.923 C1.716,9.490 1.726,10.056 1.736,10.623 C2.142,10.390 2.548,10.158 2.954,9.925 C2.964,9.538 3.104,8.428 2.893,8.195 ZM8.376,8.650 C8.122,8.792 7.868,8.933 7.614,9.075 C7.614,9.470 7.614,9.864 7.614,10.259 C7.888,10.117 8.162,9.975 8.437,9.834 C8.447,9.542 8.529,8.817 8.376,8.650 ZM1.431,8.954 C1.046,9.186 0.660,9.419 0.274,9.652 C0.274,10.208 0.274,10.765 0.274,11.321 C0.690,11.098 1.107,10.876 1.523,10.653 C1.534,10.301 1.656,9.097 1.431,8.954 ZM9.350,9.955 C8.636,10.496 8.521,10.227 8.558,11.564 C8.843,11.422 9.127,11.281 9.411,11.139 C9.421,10.822 9.498,10.154 9.350,9.955 ZM8.345,10.471 C8.102,10.613 7.858,10.754 7.614,10.896 C7.624,11.281 7.634,11.665 7.645,12.049 C7.909,11.898 8.173,11.746 8.437,11.594 C8.450,11.313 8.523,10.583 8.345,10.471 ZM3.838,10.714 C4.315,10.916 4.792,11.119 5.269,11.321 C5.269,11.766 5.269,12.211 5.269,12.656 C4.782,12.454 4.294,12.252 3.807,12.049 C3.817,11.604 3.827,11.159 3.838,10.714 ZM2.893,10.866 C2.497,11.098 2.101,11.331 1.706,11.564 C1.716,12.140 1.726,12.717 1.736,13.294 C2.142,13.061 2.548,12.828 2.954,12.596 C2.964,12.209 3.104,11.099 2.893,10.866 ZM1.462,11.594 C1.066,11.827 0.670,12.060 0.274,12.292 C0.274,12.859 0.274,13.425 0.274,13.992 C0.690,13.780 1.107,13.567 1.523,13.355 C1.532,12.923 1.672,11.882 1.462,11.594 ZM9.320,11.776 C9.066,11.928 8.812,12.080 8.558,12.232 C8.558,12.606 8.558,12.980 8.558,13.355 C8.843,13.213 9.127,13.071 9.411,12.930 C9.424,12.644 9.500,11.890 9.320,11.776 ZM8.345,12.262 C8.102,12.404 7.858,12.545 7.614,12.687 C7.614,13.081 7.614,13.476 7.614,13.871 C7.888,13.729 8.162,13.587 8.437,13.446 C8.450,13.156 8.528,12.378 8.345,12.262 ZM2.893,13.537 C2.497,13.759 2.101,13.982 1.706,14.204 C1.706,14.781 1.706,15.358 1.706,15.934 C2.122,15.722 2.538,15.510 2.954,15.297 C2.964,14.905 3.107,13.773 2.893,13.537 ZM9.350,13.567 C9.086,13.729 8.822,13.891 8.558,14.053 C8.568,14.427 8.579,14.801 8.589,15.176 C8.863,15.024 9.137,14.872 9.411,14.720 C9.421,14.433 9.501,13.730 9.350,13.567 ZM8.376,14.053 C8.122,14.204 7.868,14.356 7.614,14.508 C7.624,14.892 7.634,15.277 7.645,15.661 C7.909,15.510 8.173,15.358 8.437,15.206 C8.447,14.919 8.526,14.215 8.376,14.053 ZM4.904,14.144 C5.381,14.346 5.858,14.548 6.335,14.751 C6.325,15.196 6.315,15.641 6.305,16.086 C5.838,15.904 5.370,15.722 4.904,15.540 C4.904,15.075 4.904,14.609 4.904,14.144 ZM1.462,14.265 C1.066,14.498 0.670,14.731 0.274,14.963 C0.284,15.530 0.294,16.096 0.305,16.663 C0.711,16.440 1.117,16.218 1.523,15.995 C1.533,15.608 1.673,14.498 1.462,14.265 ZM9.350,15.358 C9.086,15.520 8.822,15.682 8.558,15.843 C8.558,16.218 8.558,16.592 8.558,16.966 C8.843,16.815 9.127,16.663 9.411,16.511 C9.421,16.200 9.495,15.552 9.350,15.358 ZM8.345,15.874 C8.102,16.026 7.858,16.177 7.614,16.329 C7.614,16.713 7.614,17.098 7.614,17.482 C7.888,17.321 8.162,17.159 8.437,16.997 C8.450,16.715 8.523,15.986 8.345,15.874 Z"/>
</g>

<g id="icon-eye" data-size="22 17">
    <path d="M10.484,0.001 C15.086,-0.080 18.474,3.413 20.453,6.101 C20.969,6.853 21.484,7.604 22.000,8.356 C20.514,11.424 17.148,14.882 14.008,16.268 C12.948,16.735 11.367,17.227 9.797,16.887 C5.820,16.026 1.622,11.657 -0.000,8.356 C0.458,7.678 0.917,7.000 1.375,6.322 C2.820,4.353 4.682,2.523 6.789,1.239 C7.534,0.785 8.449,0.413 9.367,0.178 C9.740,0.119 10.112,0.060 10.484,0.001 ZM10.527,2.830 C10.026,2.948 9.525,3.066 9.023,3.184 C7.410,3.838 6.185,5.201 5.672,6.985 C4.609,10.682 7.871,14.742 11.473,14.146 C13.719,13.775 15.296,12.609 16.070,10.743 C17.837,6.482 14.562,2.788 10.527,2.830 ZM10.742,5.659 C14.428,5.542 14.679,10.680 11.430,11.317 C9.338,11.727 7.682,9.577 8.379,7.560 C8.795,6.354 9.544,5.881 10.742,5.659 Z"/>
</g>

<g id="icon-street" data-size="16 17">
    <path fill-rule="evenodd"  fill="rgb(158, 158, 158)" d="M5.886,-0.000 C6.585,-0.000 7.284,-0.000 7.983,-0.000 C7.983,0.675 7.983,1.350 7.983,2.025 C9.539,2.025 11.095,2.025 12.651,2.025 C13.767,3.132 14.884,4.239 16.000,5.346 C14.873,6.463 13.745,7.581 12.617,8.699 C12.606,8.699 12.595,8.699 12.583,8.699 C11.050,8.699 9.516,8.699 7.983,8.699 C7.983,11.466 7.983,14.233 7.983,17.000 C7.284,17.000 6.585,17.000 5.886,17.000 C5.886,14.233 5.886,11.466 5.886,8.699 C3.924,8.688 1.962,8.677 -0.000,8.666 C-0.000,6.453 -0.000,4.239 -0.000,2.025 C1.962,2.025 3.924,2.025 5.886,2.025 C5.886,1.350 5.886,0.675 5.886,-0.000 Z"/>
</g>

<g id="icon-arrow-right" data-size="11 21">
    <path d="M10.539,9.815 L1.872,1.161 C1.492,0.782 0.876,0.782 0.495,1.161 C0.114,1.540 0.114,2.156 0.495,2.534 L8.474,10.502 L0.496,18.470 C0.115,18.849 0.115,19.464 0.496,19.844 C0.876,20.222 1.493,20.222 1.873,19.844 L10.540,11.189 C10.914,10.815 10.914,10.189 10.539,9.815 Z"/>
</g>

<g id="icon-construction" data-size="27 24">
    <path d="M4.314,0.002 C7.066,-0.049 9.251,1.014 10.741,2.219 C10.869,2.438 10.996,2.658 11.123,2.877 C11.589,3.561 12.316,4.133 13.483,4.128 C12.726,5.181 11.970,6.235 11.213,7.288 C11.213,7.273 11.213,7.259 11.213,7.244 C11.033,6.952 10.927,6.649 10.629,6.476 C9.618,5.888 8.119,7.146 7.842,7.749 C6.951,7.142 6.060,6.535 5.168,5.927 C5.176,5.906 5.183,5.884 5.191,5.862 C5.378,5.598 5.565,5.335 5.753,5.072 C5.995,4.736 6.297,4.418 6.449,3.996 C6.959,2.582 5.704,1.604 4.809,1.231 C4.357,1.043 3.601,0.878 2.899,0.990 C2.650,1.029 2.369,1.099 2.112,1.055 C2.067,1.004 2.022,0.953 1.977,0.902 C1.766,0.107 3.731,0.218 4.314,0.002 ZM14.157,4.150 C14.486,4.234 15.170,4.648 15.033,5.181 C14.883,5.401 14.734,5.620 14.584,5.840 C14.224,6.344 13.865,6.849 13.505,7.354 C13.273,7.675 13.050,8.266 12.606,8.363 C12.124,8.470 11.849,8.010 11.550,7.881 C11.550,7.873 11.550,7.866 11.550,7.859 C12.419,6.623 13.288,5.386 14.157,4.150 ZM5.123,6.696 C5.812,7.156 6.502,7.617 7.191,8.078 C7.176,8.093 7.161,8.107 7.146,8.122 C5.446,10.499 3.745,12.877 2.045,15.255 C1.078,15.235 0.328,14.539 -0.000,13.872 C1.708,11.480 3.416,9.087 5.123,6.696 ZM11.708,12.028 C13.880,12.028 16.052,12.028 18.224,12.028 C18.784,12.028 20.368,11.899 20.696,12.116 C21.067,12.362 20.921,13.931 20.921,14.574 C20.921,15.018 21.032,16.307 20.853,16.571 C20.597,16.951 19.571,16.813 18.943,16.813 C17.108,16.813 15.273,16.813 13.438,16.813 C12.812,16.813 11.610,16.970 11.348,16.593 C11.180,16.352 11.258,15.746 11.258,15.364 C11.266,14.369 11.273,13.374 11.281,12.380 C11.352,12.177 11.532,12.131 11.708,12.028 ZM5.663,19.205 C7.835,19.205 10.007,19.205 12.179,19.205 C12.739,19.205 14.323,19.075 14.651,19.293 C15.026,19.541 14.876,21.246 14.876,21.904 C14.876,22.335 14.986,23.401 14.831,23.704 C14.610,24.136 13.387,23.967 12.741,23.967 C10.884,23.967 9.026,23.967 7.168,23.967 C6.563,23.967 5.506,24.114 5.281,23.726 C5.133,23.471 5.213,22.884 5.213,22.519 C5.221,21.531 5.228,20.543 5.236,19.556 C5.301,19.357 5.486,19.300 5.663,19.205 ZM17.752,19.205 C19.984,19.205 22.217,19.205 24.449,19.205 C25.040,19.205 26.550,19.083 26.831,19.358 C27.087,19.610 26.966,21.208 26.966,21.751 C26.966,22.192 27.076,23.486 26.898,23.748 C26.651,24.111 25.588,23.967 24.988,23.967 C23.146,23.967 21.303,23.967 19.460,23.967 C18.822,23.967 17.614,24.131 17.370,23.726 C17.221,23.477 17.303,22.880 17.303,22.519 C17.310,21.531 17.318,20.543 17.325,19.556 C17.394,19.354 17.578,19.307 17.752,19.205 Z"/>
</g>

<g id="icon-lift" data-size="25 25">
    <path d="M6.800,1.015 C9.731,1.015 12.664,1.015 15.595,1.015 C17.100,1.015 18.473,0.819 18.944,1.854 C19.322,2.682 19.080,5.896 19.080,7.122 C19.080,11.293 19.080,15.466 19.080,19.638 C19.080,21.606 19.531,24.414 18.031,24.939 C16.498,24.939 14.964,24.939 13.430,24.939 C11.929,24.939 7.015,25.202 6.292,24.637 C5.557,24.063 5.751,22.473 5.751,21.181 C5.751,18.117 5.751,15.051 5.751,11.987 C5.751,9.683 5.751,7.379 5.751,5.075 C5.751,4.115 5.556,2.696 5.852,1.921 C6.038,1.435 6.471,1.344 6.800,1.015 ZM7.781,3.598 C6.842,4.104 7.104,5.001 7.104,6.350 C7.104,8.643 7.104,10.936 7.104,13.229 C7.104,15.600 7.104,17.971 7.104,20.342 C7.104,21.152 6.881,22.624 7.206,23.228 C7.502,23.780 8.741,23.597 9.574,23.597 C12.111,23.597 14.648,23.597 17.185,23.597 C17.980,23.359 17.693,20.295 17.693,19.168 C17.693,15.522 17.693,11.875 17.693,8.229 C17.693,7.386 17.864,4.449 17.591,3.967 C17.277,3.412 15.943,3.598 15.088,3.598 C12.652,3.598 10.216,3.598 7.781,3.598 ZM2.267,8.967 C2.622,8.963 3.171,8.899 3.417,9.034 C3.969,9.338 3.755,11.679 3.755,12.591 C3.755,12.890 3.694,13.378 3.823,13.564 C4.301,13.348 5.915,13.058 5.447,14.168 C4.680,14.962 3.913,15.756 3.146,16.550 C2.997,16.652 2.799,16.657 2.537,16.651 C2.007,16.332 -0.004,14.401 -0.000,13.665 C0.829,13.118 0.726,13.341 1.725,13.564 C1.737,12.155 1.748,10.745 1.759,9.336 C1.844,9.140 2.081,9.072 2.267,8.967 ZM21.279,12.457 C20.764,12.489 20.452,12.757 19.892,12.658 C19.685,12.519 19.394,12.203 19.553,11.819 C19.712,11.438 21.878,9.352 22.327,9.303 C22.978,9.693 25.005,11.426 25.000,12.323 C24.865,12.434 24.729,12.546 24.594,12.658 C24.072,12.796 23.683,12.410 23.241,12.490 C23.282,13.098 23.376,16.120 23.139,16.416 C22.967,16.633 22.313,16.751 21.854,16.651 C21.614,16.599 21.347,16.434 21.279,16.215 C21.279,14.962 21.279,13.709 21.279,12.457 ZM13.769,17.993 C12.776,17.982 11.784,17.971 10.792,17.960 C10.803,16.126 10.814,14.291 10.825,12.457 C12.291,12.468 13.757,12.479 15.223,12.490 C15.223,13.363 15.223,14.235 15.223,15.108 C15.810,15.119 16.396,15.130 16.982,15.141 C16.971,17.758 16.960,20.376 16.949,22.993 C15.889,22.982 14.828,22.971 13.769,22.959 C13.769,21.304 13.769,19.649 13.769,17.993 ZM12.957,18.698 C12.957,20.130 12.957,21.561 12.957,22.993 C11.649,22.982 10.340,22.971 9.032,22.959 C9.044,21.539 9.055,20.118 9.066,18.698 C10.363,18.698 11.660,18.698 12.957,18.698 Z"/>
</g>

<g id="icon-lift-user" data-size="26 26">
    <path d="M25.508,12.415 C25.364,12.666 25.068,12.785 24.792,12.707 L23.844,12.440 L23.844,16.055 C23.844,16.407 23.573,16.692 23.225,16.692 L22.457,16.692 C22.108,16.692 21.832,16.408 21.832,16.055 L21.832,12.441 L20.885,12.707 C20.610,12.786 20.315,12.666 20.171,12.416 C20.026,12.165 20.065,11.848 20.268,11.644 L22.396,9.492 C22.642,9.243 23.040,9.243 23.285,9.492 L25.412,11.644 C25.616,11.848 25.653,12.165 25.508,12.415 ZM18.228,25.096 L7.600,25.096 C6.822,25.096 6.197,24.379 6.197,23.496 L6.197,2.502 C6.197,1.618 6.821,0.902 7.600,0.902 L18.228,0.902 C19.007,0.902 19.637,1.618 19.637,2.502 L19.637,23.496 C19.637,24.379 19.007,25.096 18.228,25.096 ZM18.235,4.364 C18.235,3.904 17.920,3.525 17.514,3.525 L8.315,3.525 C7.909,3.525 7.573,3.904 7.573,4.364 L7.573,22.925 C7.573,23.385 7.909,23.757 8.315,23.757 L17.514,23.757 C17.920,23.757 18.235,23.385 18.235,22.925 L18.235,4.364 ZM15.358,14.791 L14.557,14.791 L14.557,22.058 C14.557,22.279 14.372,22.445 14.153,22.445 L13.492,22.445 C13.272,22.445 13.101,22.279 13.101,22.058 L13.101,16.025 C13.101,15.923 13.020,15.857 12.920,15.857 C12.819,15.857 12.731,15.923 12.731,16.025 L12.731,22.058 C12.731,22.279 12.555,22.445 12.336,22.445 L11.674,22.445 C11.455,22.445 11.263,22.277 11.263,22.056 L11.249,14.791 L10.469,14.791 C10.361,14.791 10.256,14.745 10.182,14.665 C10.107,14.584 10.068,14.475 10.075,14.365 L10.489,9.872 C10.552,9.200 11.108,8.690 11.775,8.690 L14.053,8.690 C14.720,8.690 15.277,9.200 15.340,9.872 L15.751,14.368 C15.759,14.478 15.721,14.585 15.645,14.665 C15.571,14.746 15.466,14.791 15.358,14.791 ZM12.914,8.120 C12.011,8.120 11.278,7.379 11.278,6.466 C11.278,5.552 12.011,4.812 12.914,4.812 C13.817,4.812 14.549,5.552 14.549,6.466 C14.549,7.379 13.817,8.120 12.914,8.120 ZM3.606,16.550 C3.360,16.799 2.961,16.799 2.716,16.550 L0.589,14.398 C0.386,14.193 0.346,13.877 0.491,13.626 C0.635,13.377 0.929,13.257 1.204,13.335 L2.149,13.601 L2.149,9.585 C2.149,9.233 2.428,8.958 2.777,8.958 L3.545,8.958 C3.894,8.958 4.186,9.233 4.186,9.585 L4.186,13.601 L5.124,13.334 C5.399,13.257 5.690,13.377 5.834,13.626 C5.979,13.878 5.936,14.194 5.733,14.398 L3.606,16.550 Z"/>
</g>

<g id="icon-calendar" data-size="25 25">
    <path d="M3.471,4.225 L3.471,1.207 C3.471,0.790 3.809,0.452 4.226,0.452 C4.643,0.452 4.980,0.790 4.980,1.207 L4.980,4.225 C4.980,4.643 4.643,4.980 4.226,4.980 C3.809,4.980 3.471,4.643 3.471,4.225 ZM16.299,4.980 C16.716,4.980 17.054,4.643 17.054,4.225 L17.054,1.207 C17.054,0.790 16.716,0.452 16.299,0.452 C15.882,0.452 15.545,0.790 15.545,1.207 L15.545,4.225 C15.545,4.643 15.882,4.980 16.299,4.980 ZM24.600,18.563 C24.600,21.896 21.897,24.599 18.563,24.599 C15.229,24.599 12.526,21.896 12.526,18.563 C12.526,15.229 15.229,12.526 18.563,12.526 C21.897,12.526 24.600,15.229 24.600,18.563 ZM23.091,18.563 C23.091,16.066 21.060,14.035 18.563,14.035 C16.066,14.035 14.035,16.066 14.035,18.563 C14.035,21.059 16.066,23.090 18.563,23.090 C21.060,23.090 23.091,21.059 23.091,18.563 ZM6.490,9.508 L3.471,9.508 L3.471,12.526 L6.490,12.526 L6.490,9.508 ZM3.471,17.053 L6.490,17.053 L6.490,14.035 L3.471,14.035 L3.471,17.053 ZM7.999,12.526 L11.017,12.526 L11.017,9.508 L7.999,9.508 L7.999,12.526 ZM7.999,17.053 L11.017,17.053 L11.017,14.035 L7.999,14.035 L7.999,17.053 ZM1.962,18.412 L1.962,7.998 L18.563,7.998 L18.563,11.017 L20.072,11.017 L20.072,5.131 C20.072,4.214 19.341,3.471 18.438,3.471 L17.808,3.471 L17.808,4.225 C17.808,5.057 17.132,5.734 16.299,5.734 C15.467,5.734 14.790,5.057 14.790,4.225 L14.790,3.471 L5.735,3.471 L5.735,4.225 C5.735,5.057 5.059,5.734 4.226,5.734 C3.393,5.734 2.717,5.057 2.717,4.225 L2.717,3.471 L2.088,3.471 C1.185,3.471 0.453,4.214 0.453,5.131 L0.453,18.412 C0.453,19.326 1.185,20.072 2.088,20.072 L11.017,20.072 L11.017,18.563 L2.088,18.563 C2.020,18.563 1.962,18.492 1.962,18.412 ZM15.545,12.526 L15.545,9.508 L12.526,9.508 L12.526,12.526 L15.545,12.526 ZM20.827,18.563 L18.563,18.563 L18.563,16.299 C18.563,15.882 18.226,15.544 17.808,15.544 C17.391,15.544 17.054,15.882 17.054,16.299 L17.054,19.317 C17.054,19.734 17.391,20.072 17.808,20.072 L20.827,20.072 C21.244,20.072 21.581,19.734 21.581,19.317 C21.581,18.900 21.244,18.563 20.827,18.563 Z"/>
</g>

<g id="icon-home" data-size="27 24">
    <path d="M27.000,14.815 C25.022,14.822 23.798,12.706 22.746,11.632 C19.664,8.488 16.582,5.343 13.500,2.199 C11.572,4.147 9.643,6.096 7.714,8.044 C5.597,10.243 3.479,12.442 1.361,14.641 C1.044,14.850 0.526,14.818 -0.000,14.815 C-0.013,12.676 1.594,12.047 2.609,10.938 C5.143,8.334 7.677,5.729 10.210,3.125 C10.963,2.357 12.530,0.194 13.613,-0.000 C14.988,1.043 16.047,2.367 17.244,3.588 C19.456,5.845 21.668,8.102 23.880,10.359 C24.955,11.455 27.007,12.746 27.000,14.815 ZM16.847,23.901 C16.871,22.161 17.248,15.736 16.563,14.873 C16.048,14.224 14.220,14.468 13.103,14.468 C12.384,14.487 11.666,14.506 10.947,14.525 C9.683,15.040 10.124,21.794 10.153,23.901 C8.570,23.931 4.501,24.273 4.027,23.264 C3.580,22.411 3.905,15.890 3.914,14.352 C6.126,12.037 8.338,9.722 10.550,7.407 C11.050,6.771 12.524,4.900 13.273,4.688 C14.293,4.398 15.518,6.203 16.052,6.887 C18.397,9.375 20.742,11.864 23.086,14.352 C23.086,16.628 23.086,18.905 23.086,21.181 C23.086,22.185 23.221,23.319 22.632,23.727 C21.943,24.204 18.047,23.915 16.847,23.901 Z"/>
</g>

<g id="icon-repair" data-size="28 28">
    <path d="M13.079,-0.000 C13.620,0.034 14.161,0.068 14.701,0.102 C14.904,0.846 15.107,1.591 15.310,2.336 C15.867,2.488 16.425,2.641 16.983,2.793 C17.523,2.319 18.064,1.845 18.605,1.371 C20.476,1.918 19.759,2.634 19.568,4.367 C19.974,4.722 20.379,5.078 20.785,5.433 C21.420,5.265 22.543,4.692 23.117,4.926 C23.370,5.281 23.624,5.637 23.877,5.992 C23.438,6.652 22.998,7.312 22.559,7.972 C22.813,8.615 23.066,9.259 23.320,9.902 C24.080,10.054 24.840,10.207 25.601,10.359 C25.668,10.867 25.736,11.375 25.804,11.882 C25.111,12.221 24.418,12.559 23.725,12.898 C23.691,13.490 23.658,14.083 23.624,14.675 C24.232,15.132 24.840,15.589 25.449,16.046 C24.860,17.792 24.935,17.607 22.661,17.570 C22.458,17.942 22.255,18.314 22.052,18.687 C22.035,18.687 22.018,18.687 22.001,18.687 C21.393,18.230 20.785,17.773 20.176,17.316 C20.396,16.859 20.616,16.402 20.836,15.945 C21.381,14.552 21.625,12.187 21.089,10.562 C19.368,5.351 12.908,2.142 7.604,6.246 C2.642,10.085 3.984,18.259 9.328,20.616 C10.225,21.012 11.177,21.199 12.319,21.378 C13.213,21.519 14.579,20.941 15.056,21.226 C16.171,22.055 17.287,22.885 18.402,23.714 C18.402,24.019 18.402,24.323 18.402,24.628 C17.577,24.861 17.244,25.296 16.628,24.831 C16.239,24.374 15.851,23.917 15.462,23.460 C14.820,23.578 14.178,23.697 13.535,23.815 C13.214,24.509 12.893,25.203 12.572,25.897 C12.049,25.847 11.525,25.796 11.001,25.745 C10.933,25.204 10.715,23.756 10.342,23.460 C9.835,23.308 9.328,23.155 8.821,23.003 C8.229,23.511 7.638,24.019 7.047,24.526 C6.607,24.273 6.168,24.019 5.729,23.765 C5.881,22.969 6.033,22.174 6.185,21.378 C5.678,20.904 5.171,20.430 4.664,19.956 C3.870,20.125 3.075,20.295 2.281,20.464 C2.028,20.007 1.774,19.550 1.521,19.093 C2.011,18.501 2.501,17.908 2.991,17.316 C2.704,15.782 1.776,15.638 0.203,15.437 C0.135,14.912 0.068,14.387 -0.000,13.863 C0.693,13.524 1.386,13.186 2.078,12.847 C2.100,12.371 2.303,11.347 2.129,11.121 C0.832,9.676 0.115,10.733 0.811,8.277 C1.605,8.243 2.400,8.209 3.194,8.175 C3.464,7.634 3.734,7.092 4.005,6.551 C3.650,5.907 3.295,5.264 2.940,4.621 C3.312,4.232 3.684,3.842 4.056,3.453 C4.732,3.769 5.429,4.250 6.235,4.367 C6.615,3.923 7.370,3.458 7.959,3.250 C7.942,2.701 7.776,1.154 8.111,0.914 C8.567,0.762 9.024,0.609 9.480,0.457 C9.919,1.049 10.359,1.642 10.798,2.234 C11.271,2.184 11.744,2.133 12.217,2.082 C12.505,1.388 12.792,0.694 13.079,-0.000 ZM9.176,9.140 C11.666,9.107 13.077,10.224 13.637,12.085 C13.786,12.581 13.639,13.456 13.840,13.914 C16.644,16.029 19.450,18.145 22.255,20.261 C25.047,19.155 27.362,20.900 27.882,23.257 C27.969,23.651 28.060,24.333 27.882,24.729 C27.848,24.696 27.814,24.662 27.781,24.628 C26.632,24.074 24.567,21.239 22.813,22.749 C20.650,24.611 24.643,26.992 25.652,27.675 C25.635,27.709 25.618,27.742 25.601,27.776 C23.050,28.321 21.242,27.939 20.227,25.897 C20.007,25.455 19.955,23.636 19.720,23.358 C16.949,21.243 14.177,19.127 11.406,17.011 C10.714,17.077 10.135,17.468 9.277,17.316 C7.101,16.929 5.120,15.252 5.678,12.542 C5.695,12.542 5.712,12.542 5.729,12.542 C6.746,13.266 10.020,16.587 11.203,13.914 C12.255,11.538 8.627,10.765 7.959,9.496 C8.365,9.377 8.770,9.259 9.176,9.140 ZM12.217,14.523 C12.015,14.827 11.812,15.132 11.609,15.437 C14.870,17.874 18.132,20.312 21.393,22.749 C21.596,22.478 21.799,22.207 22.001,21.937 C21.934,21.852 21.866,21.767 21.799,21.683 C18.605,19.296 15.411,16.909 12.217,14.523 Z"/>
</g>

<g id="icon-payments" data-size="24 24">
    <path d="M5.971,-0.000 C6.105,0.101 6.832,1.609 6.835,1.763 C6.321,1.933 5.847,2.328 5.434,2.625 C3.872,3.748 2.581,5.173 1.709,6.994 C1.139,6.700 0.570,6.406 -0.000,6.113 C0.949,4.089 2.427,2.399 4.128,1.136 C4.698,0.713 5.404,0.446 5.971,-0.000 ZM17.990,-0.000 C18.699,0.224 19.377,0.790 19.930,1.215 C21.278,2.249 22.397,3.417 23.309,4.898 C23.542,5.276 23.856,5.678 24.000,6.132 C23.424,6.413 22.848,6.694 22.272,6.975 C22.105,6.450 21.718,5.966 21.427,5.544 C20.327,3.951 18.931,2.634 17.146,1.744 C17.427,1.162 17.709,0.581 17.990,-0.000 ZM11.597,1.469 C16.828,1.376 20.275,4.465 21.773,8.189 C22.350,9.624 22.848,11.876 22.445,13.910 C22.083,15.733 21.513,17.176 20.640,18.455 C20.506,18.651 19.638,19.699 19.661,19.749 C20.307,20.826 20.954,21.904 21.600,22.981 C21.056,23.321 20.512,23.660 19.968,24.000 C19.968,23.987 19.968,23.974 19.968,23.961 C19.366,22.975 18.765,21.988 18.163,21.002 C18.144,21.009 18.125,21.015 18.106,21.022 C17.859,21.286 17.482,21.438 17.165,21.629 C15.447,22.666 12.434,23.476 9.754,22.785 C8.787,22.536 7.841,22.248 7.066,21.786 C6.656,21.525 6.246,21.264 5.837,21.002 C5.837,21.015 5.837,21.029 5.837,21.042 C5.222,22.028 4.608,23.014 3.994,24.000 C3.987,24.000 3.981,24.000 3.974,24.000 C3.443,23.660 2.912,23.321 2.381,22.981 C3.046,21.891 3.712,20.800 4.378,19.709 C4.083,19.357 3.789,19.004 3.494,18.651 C2.920,17.834 2.437,16.920 2.054,15.909 C1.823,15.296 1.687,14.605 1.555,13.910 C1.277,12.446 1.471,10.601 1.824,9.404 C2.761,6.224 4.685,3.745 7.488,2.488 C8.272,2.136 9.106,1.850 10.042,1.646 C10.560,1.587 11.078,1.528 11.597,1.469 ZM11.635,3.429 C11.309,3.461 10.982,3.494 10.656,3.527 C10.063,3.649 9.485,3.769 8.966,3.977 C6.462,4.983 4.583,6.902 3.744,9.600 C2.189,14.596 5.232,18.838 8.467,20.278 C9.287,20.643 11.045,21.287 12.365,21.061 C13.178,20.922 13.904,20.891 14.592,20.669 C17.080,19.866 18.962,18.071 19.949,15.732 C20.827,13.649 20.803,10.890 19.949,8.816 C18.689,5.757 15.917,3.415 11.635,3.429 ZM7.795,5.525 C9.209,5.525 10.624,5.525 12.038,5.525 C12.963,5.525 13.962,5.464 14.669,5.701 C15.886,6.109 16.478,6.965 16.858,8.248 C17.083,9.011 17.086,10.164 16.781,10.854 C16.047,12.511 14.799,13.146 12.403,13.146 C11.635,13.146 10.867,13.146 10.099,13.146 C9.868,13.146 9.388,13.076 9.235,13.185 C9.248,13.727 9.261,14.269 9.274,14.811 C11.014,14.811 12.755,14.811 14.496,14.811 C14.490,15.275 14.483,15.739 14.477,16.202 C12.736,16.209 10.995,16.215 9.254,16.222 C9.248,17.136 9.242,18.051 9.235,18.965 C8.755,18.965 8.275,18.965 7.795,18.965 C7.789,18.044 7.782,17.123 7.776,16.202 C7.501,16.202 7.226,16.202 6.950,16.202 C6.950,15.739 6.950,15.275 6.950,14.811 C7.232,14.805 7.514,14.798 7.795,14.792 C7.789,14.243 7.782,13.695 7.776,13.146 C7.501,13.140 7.226,13.133 6.950,13.127 C6.950,12.669 6.950,12.212 6.950,11.755 C7.232,11.749 7.514,11.742 7.795,11.735 C7.795,9.665 7.795,7.595 7.795,5.525 ZM9.254,6.935 C9.248,8.098 9.242,9.260 9.235,10.423 C9.235,10.805 9.141,11.454 9.274,11.755 C10.586,11.765 13.422,11.967 14.266,11.520 C14.659,11.312 14.884,10.945 15.091,10.540 C15.284,10.164 15.487,9.553 15.379,8.895 C15.242,8.055 14.906,7.282 14.208,7.033 C13.760,6.874 13.105,6.935 12.538,6.935 C11.443,6.935 10.349,6.935 9.254,6.935 Z"/>
</g>

<g id="icon-advance" data-size="25 24">
    <path d="M11.161,16.983 C9.388,17.440 7.615,17.898 5.842,18.355 C5.242,18.526 4.225,19.014 3.522,18.637 C2.783,18.241 2.746,16.812 2.482,15.934 C1.802,13.392 1.122,10.850 0.442,8.308 C0.179,7.363 -0.404,5.886 0.442,5.242 C1.191,4.672 4.122,4.227 5.242,3.910 C8.668,2.982 12.095,2.054 15.521,1.126 C16.309,0.902 19.888,-0.213 20.560,0.037 C21.485,0.379 21.505,1.995 21.800,2.982 C22.374,5.174 22.947,7.367 23.520,9.559 C23.886,10.817 24.341,12.015 24.040,13.311 C24.462,13.621 24.867,14.095 25.000,14.683 C25.000,16.822 25.000,18.960 25.000,21.099 C24.867,21.381 24.733,21.664 24.600,21.946 C22.643,24.611 13.632,24.679 11.601,22.027 C10.876,21.080 11.145,18.616 11.161,16.983 ZM19.600,1.893 C17.668,2.431 15.734,2.969 13.801,3.507 C14.001,4.246 14.201,4.986 14.401,5.726 C16.361,5.201 18.321,4.677 20.280,4.152 C20.280,4.139 20.280,4.125 20.280,4.112 C20.108,3.597 20.012,2.188 19.600,1.893 ZM21.760,9.357 C20.547,9.693 19.334,10.030 18.121,10.366 C18.214,10.756 18.307,11.146 18.401,11.536 C18.441,11.536 18.481,11.536 18.521,11.536 C19.734,11.213 20.947,10.890 22.160,10.568 C22.160,10.527 22.160,10.487 22.160,10.447 C22.080,10.145 22.015,9.493 21.760,9.357 ZM17.321,11.818 C17.307,11.456 17.190,10.872 17.001,10.648 C15.761,10.998 14.521,11.348 13.281,11.697 C13.374,11.966 13.468,12.235 13.561,12.504 C14.707,12.211 15.854,11.839 17.321,11.818 ZM12.121,11.940 C10.908,12.262 9.695,12.585 8.482,12.908 C8.482,12.948 8.482,12.989 8.482,13.029 C8.588,13.392 8.695,13.755 8.802,14.118 C9.934,13.717 11.507,13.644 12.481,13.029 C12.474,12.700 12.353,12.060 12.121,11.940 ZM17.041,12.787 C16.681,12.827 16.321,12.868 15.961,12.908 C14.672,13.173 13.298,13.488 12.641,14.401 C12.442,14.677 12.295,15.135 12.521,15.531 C13.798,17.760 22.645,17.875 23.680,15.410 C24.057,14.511 23.149,14.015 22.640,13.715 C21.254,12.897 19.277,12.760 17.041,12.787 ZM7.242,13.231 C6.042,13.567 4.842,13.903 3.642,14.239 C3.735,14.616 3.829,14.993 3.922,15.369 C3.975,15.369 4.029,15.369 4.082,15.369 C5.295,15.046 6.509,14.724 7.722,14.401 C7.615,14.011 7.508,13.621 7.402,13.231 C7.348,13.231 7.295,13.231 7.242,13.231 ZM23.680,16.459 C23.162,18.820 16.370,18.804 14.081,17.871 C13.277,17.543 12.987,17.025 12.401,16.539 C12.393,17.130 12.295,18.041 12.521,18.436 C13.843,20.737 20.914,20.490 23.040,19.041 C23.466,18.751 24.225,17.344 23.680,16.459 ZM23.680,19.202 C23.157,21.587 16.352,21.517 14.081,20.615 C13.279,20.296 12.980,19.773 12.401,19.283 C12.393,19.875 12.295,20.783 12.521,21.180 C13.786,23.397 20.657,23.250 22.840,21.906 C23.502,21.498 23.761,21.078 23.760,19.969 C23.760,19.687 23.783,19.370 23.680,19.202 Z"/>
</g>

<g id="icon-safe" data-size="22 24">
    <path d="M21.925,24.000 C20.180,23.981 18.435,23.962 16.690,23.942 C15.848,23.600 15.910,22.399 14.812,22.160 C12.195,22.179 9.577,22.199 6.960,22.218 C6.064,22.533 6.017,23.778 5.139,24.000 C3.451,24.000 1.763,24.000 0.075,24.000 C0.075,18.155 0.075,12.309 0.075,6.464 C0.075,4.428 -0.363,1.212 0.871,0.370 C1.576,-0.110 3.210,0.083 4.342,0.083 C7.111,0.083 9.881,0.083 12.650,0.083 C14.359,0.083 20.252,-0.231 21.129,0.370 C22.362,1.215 21.925,4.425 21.925,6.464 C21.925,12.309 21.925,18.155 21.925,24.000 ZM20.104,18.481 C21.518,18.365 21.339,13.364 20.389,13.019 C20.294,13.000 20.199,12.980 20.104,12.961 C20.104,11.735 20.104,10.508 20.104,9.282 C21.518,9.166 21.339,4.165 20.389,3.820 C20.294,3.801 20.199,3.781 20.104,3.762 C20.033,1.713 18.220,1.922 16.121,1.922 C12.821,1.922 9.520,1.922 6.220,1.922 C4.164,1.922 2.282,1.664 1.896,3.360 C1.896,7.633 1.896,11.908 1.896,16.181 C1.895,18.201 1.694,19.942 3.318,20.320 C4.551,20.320 5.784,20.320 7.017,20.320 C9.805,20.320 12.594,20.320 15.381,20.320 C16.460,20.320 18.165,20.569 19.023,20.205 C19.637,19.946 20.074,19.343 20.104,18.481 ZM19.194,4.682 C19.497,4.682 19.801,4.682 20.104,4.682 C20.104,5.909 20.104,7.135 20.104,8.362 C19.801,8.362 19.497,8.362 19.194,8.362 C19.194,10.201 19.194,12.041 19.194,13.881 C19.497,13.881 19.801,13.881 20.104,13.881 C20.104,15.108 20.104,16.334 20.104,17.561 C19.801,17.561 19.497,17.561 19.194,17.561 C19.223,18.355 19.143,18.804 18.853,19.228 C17.860,19.525 16.248,19.400 14.983,19.400 C12.385,19.400 9.786,19.400 7.187,19.400 C5.805,19.400 3.830,19.623 2.977,19.055 C2.683,18.052 2.806,16.424 2.806,15.146 C2.806,12.521 2.806,9.895 2.806,7.269 C2.806,5.873 2.585,3.877 3.147,3.015 C4.140,2.718 5.752,2.842 7.017,2.842 C9.615,2.842 12.214,2.842 14.812,2.842 C16.195,2.842 18.170,2.619 19.023,3.187 C19.145,3.595 19.201,4.072 19.194,4.682 ZM10.317,5.602 C8.247,6.241 6.678,6.841 5.765,9.397 C4.431,13.131 7.790,17.336 11.683,16.641 C18.344,15.451 17.978,5.488 10.317,5.602 ZM10.602,6.522 C12.009,6.482 13.137,6.875 13.845,7.557 C13.219,8.208 12.593,8.860 11.967,9.512 C11.810,9.569 10.801,9.189 10.090,9.512 C9.445,8.841 8.800,8.170 8.155,7.499 C8.553,7.269 8.951,7.039 9.350,6.809 C9.767,6.714 10.184,6.618 10.602,6.522 ZM7.415,8.247 C8.079,8.879 8.743,9.512 9.407,10.144 C9.463,10.303 9.090,11.323 9.407,12.041 C8.743,12.693 8.079,13.345 7.415,13.996 C6.207,11.319 6.214,10.922 7.415,8.247 ZM14.471,8.247 C16.075,9.265 15.623,12.828 14.528,13.996 C13.883,13.345 13.238,12.693 12.593,12.041 C12.861,11.484 12.856,10.759 12.593,10.201 C13.219,9.550 13.845,8.898 14.471,8.247 ZM10.033,12.731 C10.648,12.938 11.303,13.020 11.910,12.731 C12.555,13.402 13.200,14.073 13.845,14.744 C12.020,15.593 9.919,16.354 8.155,14.686 C8.781,14.034 9.407,13.383 10.033,12.731 Z"/>
</g>

<g id="icon-doc" data-size="20 26">
    <path d="M13.796,-0.000 L-0.008,-0.000 L-0.008,26.000 L20.007,26.000 L20.007,6.320 L13.796,-0.000 ZM4.677,6.066 L8.935,6.066 C9.170,6.066 9.361,6.260 9.361,6.499 C9.361,6.739 9.170,6.932 8.935,6.932 L4.677,6.932 C4.442,6.932 4.251,6.739 4.251,6.499 C4.251,6.260 4.442,6.066 4.677,6.066 ZM15.323,20.799 L4.677,20.799 C4.442,20.799 4.251,20.606 4.251,20.366 C4.251,20.127 4.442,19.933 4.677,19.933 L15.323,19.933 C15.558,19.933 15.749,20.127 15.749,20.366 C15.749,20.606 15.558,20.799 15.323,20.799 ZM15.323,17.333 L4.677,17.333 C4.442,17.333 4.251,17.139 4.251,16.899 C4.251,16.660 4.442,16.466 4.677,16.466 L15.323,16.466 C15.558,16.466 15.749,16.660 15.749,16.899 C15.749,17.139 15.558,17.333 15.323,17.333 ZM15.323,13.866 L4.677,13.866 C4.442,13.866 4.251,13.672 4.251,13.433 C4.251,13.193 4.442,12.999 4.677,12.999 L15.323,12.999 C15.558,12.999 15.749,13.193 15.749,13.433 C15.749,13.672 15.558,13.866 15.323,13.866 ZM15.323,10.399 L4.677,10.399 C4.442,10.399 4.251,10.206 4.251,9.966 C4.251,9.726 4.442,9.533 4.677,9.533 L15.323,9.533 C15.558,9.533 15.749,9.726 15.749,9.966 C15.749,10.206 15.558,10.399 15.323,10.399 ZM13.194,6.932 L13.194,0.866 L19.156,6.932 L13.194,6.932 Z"/>
</g>

<g id="icon-internet" data-size="24 20">
    <path d="M22.551,15.703 L13.825,15.703 L13.825,18.216 L17.143,18.216 L17.143,19.670 L6.871,19.670 L6.871,18.216 L10.189,18.216 L10.189,15.703 L1.463,15.703 C0.863,15.703 0.372,15.212 0.372,14.613 L0.372,1.650 C0.372,1.050 0.863,0.559 1.463,0.559 L22.551,0.559 C23.151,0.559 23.642,1.050 23.642,1.650 L23.642,14.612 C23.642,15.212 23.151,15.703 22.551,15.703 ZM22.188,2.014 L1.826,2.014 L1.826,14.249 L22.188,14.249 L22.188,2.014 ZM5.273,7.467 L6.048,4.557 L7.066,4.557 L7.809,7.516 L8.460,4.557 L9.321,4.557 L8.292,8.793 L7.384,8.793 L6.540,5.626 L5.698,8.793 L4.770,8.793 L3.758,4.557 L4.634,4.557 L5.273,7.467 ZM19.722,11.865 L4.292,11.865 L4.292,10.412 L19.722,10.412 L19.722,11.865 ZM18.562,8.793 L17.717,5.626 L16.876,8.793 L15.948,8.793 L14.936,4.557 L15.812,4.557 L16.451,7.467 L17.226,4.557 L18.244,4.557 L18.987,7.516 L19.638,4.557 L20.499,4.557 L19.469,8.793 L18.562,8.793 ZM12.973,8.793 L12.128,5.626 L11.287,8.793 L10.359,8.793 L9.347,4.557 L10.223,4.557 L10.862,7.467 L11.637,4.557 L12.655,4.557 L13.398,7.516 L14.049,4.557 L14.910,4.557 L13.880,8.793 L12.973,8.793 Z"/>
</g>

<g id="icon-vent" data-size="25 25">
    <path d="M12.828,24.229 C6.287,24.229 0.966,18.908 0.966,12.367 C0.966,5.826 6.287,0.505 12.828,0.505 C19.369,0.505 24.690,5.826 24.690,12.367 C24.690,18.908 19.369,24.229 12.828,24.229 ZM12.828,1.776 C6.988,1.776 2.237,6.527 2.237,12.367 C2.237,18.207 6.988,22.958 12.828,22.958 C18.668,22.958 23.419,18.207 23.419,12.367 C23.419,6.527 18.668,1.776 12.828,1.776 ZM20.675,16.754 C20.002,17.920 18.240,19.708 16.338,18.798 C14.288,17.818 13.373,14.890 13.091,13.772 C13.755,13.648 14.258,13.067 14.258,12.367 C14.258,12.142 14.204,11.929 14.111,11.740 C15.029,11.461 18.284,10.616 20.274,11.980 C22.013,13.173 21.349,15.588 20.675,16.754 ZM13.871,11.392 C13.610,11.113 13.240,10.937 12.828,10.937 C12.434,10.937 12.077,11.097 11.818,11.355 C11.142,10.727 8.737,8.308 8.926,5.880 C9.089,3.778 11.513,3.145 12.859,3.145 C14.206,3.145 16.635,3.778 16.798,5.880 C16.990,8.358 14.485,10.826 13.871,11.392 ZM11.398,12.367 C11.398,13.062 11.894,13.640 12.551,13.770 C12.258,14.918 11.341,17.790 9.317,18.758 C7.415,19.667 5.655,17.885 4.982,16.719 C4.309,15.553 3.642,13.133 5.381,11.941 C7.386,10.565 10.675,11.431 11.563,11.702 C11.458,11.901 11.398,12.127 11.398,12.367 Z"/>
</g>

<g id="icon-air" data-size="25 27">
    <path d="M20.462,26.276 C20.116,26.347 19.758,26.385 19.391,26.385 C16.510,26.385 14.173,24.069 14.133,21.196 C14.133,21.172 14.129,21.148 14.129,21.123 C14.129,20.761 14.177,20.412 14.246,20.070 C14.426,19.193 14.821,18.398 15.379,17.740 C15.727,17.330 16.128,16.966 16.585,16.678 L16.585,15.406 L16.585,12.142 L16.585,10.592 L16.585,7.328 L16.585,5.619 C16.585,5.135 16.712,4.682 16.933,4.287 C17.401,3.451 18.294,2.885 19.320,2.885 C19.530,2.885 19.734,2.911 19.929,2.955 C21.146,3.232 22.055,4.318 22.055,5.619 L22.055,16.590 C23.609,17.505 24.654,19.190 24.654,21.124 C24.654,23.663 22.855,25.782 20.462,26.276 ZM22.674,20.810 C22.581,19.688 21.892,18.560 20.590,18.227 L20.590,14.741 L20.590,12.731 L20.590,12.290 L20.590,12.142 L20.590,10.592 L20.590,10.002 L20.590,7.993 L20.590,6.615 C20.590,5.666 20.295,4.898 19.347,4.898 C19.129,4.898 18.950,4.943 18.797,5.017 C18.591,5.115 18.441,5.274 18.334,5.475 C18.283,5.570 18.243,5.673 18.211,5.785 C18.139,6.032 18.104,6.311 18.104,6.614 L18.104,7.335 L18.104,10.296 L18.104,12.290 L18.104,12.437 L18.104,15.398 L18.104,16.948 L18.104,17.030 L18.104,18.281 C17.872,18.351 17.661,18.455 17.461,18.575 C17.271,18.689 17.091,18.818 16.935,18.972 C16.575,19.327 16.321,19.785 16.190,20.307 C16.150,20.469 16.124,20.636 16.110,20.808 C16.098,20.895 16.090,20.982 16.090,21.070 C16.090,22.894 17.568,24.372 19.391,24.372 C21.215,24.372 22.693,22.894 22.693,21.070 C22.693,20.982 22.686,20.896 22.674,20.810 ZM20.019,22.704 C20.552,22.093 20.783,21.403 20.713,20.656 C20.656,20.048 21.817,20.052 21.873,20.656 C21.956,21.549 21.658,22.451 21.020,23.181 C20.590,23.673 19.584,23.202 20.019,22.704 ZM18.540,12.290 L18.540,9.859 L18.540,7.337 L18.540,6.614 C18.540,6.238 18.590,5.975 18.665,5.787 C18.846,5.336 19.177,5.334 19.347,5.334 C19.518,5.334 19.851,5.336 20.031,5.793 C20.105,5.980 20.153,6.242 20.153,6.614 L20.153,7.344 L20.153,8.246 L20.153,10.438 L20.153,10.591 L20.153,12.141 L20.153,12.290 L20.149,12.290 L18.540,12.290 ZM15.582,5.114 L15.582,8.202 L14.388,9.385 C14.106,8.946 13.735,8.570 13.297,8.284 L15.374,6.227 L15.391,2.423 L16.941,2.430 L16.940,2.701 C16.131,3.104 15.582,3.923 15.582,5.114 ZM12.063,7.767 C11.813,7.713 11.553,7.683 11.288,7.683 C11.022,7.683 10.763,7.713 10.513,7.767 L10.513,4.845 L7.823,2.156 L8.919,1.060 L10.513,2.654 L10.513,0.938 L12.063,0.938 L12.063,2.654 L13.657,1.060 L14.753,2.156 L12.063,4.845 L12.063,7.767 ZM10.513,7.767 C10.513,7.767 10.513,7.767 10.513,7.767 L10.513,7.767 L10.513,7.767 ZM8.187,9.386 L6.110,7.328 L2.306,7.345 L2.299,5.794 L4.553,5.784 L3.334,4.577 L4.425,3.476 L5.644,4.683 L5.634,2.429 L7.184,2.422 L7.202,6.226 L9.278,8.284 C8.841,8.570 8.469,8.946 8.187,9.386 ZM7.688,10.591 C7.634,10.841 7.604,11.100 7.604,11.366 C7.604,11.632 7.634,11.891 7.688,12.141 L4.767,12.141 L2.077,14.831 L0.981,13.736 L2.575,12.141 L0.859,12.141 L0.859,10.591 L2.575,10.591 L0.981,8.997 L2.077,7.901 L4.767,10.591 L7.688,10.591 ZM2.306,15.388 L6.110,15.406 L8.187,13.348 C8.469,13.787 8.841,14.164 9.278,14.450 L7.202,16.507 L7.184,20.311 L5.634,20.304 L5.644,18.050 L4.425,19.258 L3.334,18.156 L4.553,16.949 L2.299,16.939 L2.306,15.388 ZM11.288,14.177 C9.735,14.177 8.477,12.919 8.477,11.367 C8.477,9.815 9.735,8.556 11.288,8.556 C12.840,8.556 14.099,9.815 14.099,11.367 C14.099,12.919 12.840,14.177 11.288,14.177 ZM13.297,14.450 C13.735,14.164 14.106,13.787 14.387,13.348 L15.582,14.531 L15.582,16.060 C15.456,16.155 15.340,16.257 15.223,16.357 L13.297,14.450 ZM15.582,10.592 L15.582,12.142 L14.888,12.142 C14.942,11.892 14.971,11.632 14.971,11.367 C14.971,11.101 14.941,10.842 14.888,10.592 L15.582,10.592 ZM10.513,14.966 C10.763,15.020 11.022,15.050 11.288,15.050 C11.553,15.050 11.813,15.020 12.063,14.966 L12.063,17.887 L13.387,19.211 C13.269,19.680 13.204,20.188 13.204,20.749 C13.204,20.915 13.213,21.078 13.224,21.240 L12.063,20.079 L12.063,21.795 L10.512,21.795 L10.512,20.079 L8.918,21.673 L7.823,20.577 L10.513,17.887 L10.513,14.966 Z"/>
</g>

<g id="icon-fire" data-size="19 22">
    <path d="M14.314,22.000 L15.858,14.366 L17.530,14.366 L18.988,22.000 L14.314,22.000 ZM15.855,5.154 C15.853,3.441 14.983,2.690 13.355,2.693 L11.398,2.693 L9.970,2.693 L9.970,3.668 C11.273,4.166 13.344,6.190 13.338,6.888 L13.338,9.446 L13.338,20.366 L3.324,20.366 L3.324,9.446 L3.324,6.888 C3.329,6.184 5.181,4.254 6.508,3.682 C6.355,3.723 6.193,3.744 6.028,3.744 C5.437,3.744 4.912,3.467 4.572,3.035 L2.010,6.470 L-0.005,4.434 C1.390,3.504 3.132,2.565 4.180,2.054 L4.172,1.878 C4.172,0.846 5.002,0.012 6.028,0.012 C6.304,0.012 6.565,0.072 6.801,0.180 L9.970,0.180 L9.970,1.012 L11.398,1.012 L13.355,1.012 C15.860,0.993 17.498,2.068 17.524,5.154 L17.524,14.026 L15.855,14.026 L15.855,5.154 ZM6.676,1.897 L6.676,1.342 C6.522,1.155 6.289,1.035 6.028,1.035 C5.565,1.035 5.190,1.412 5.190,1.878 C5.190,2.344 5.565,2.721 6.028,2.721 C6.289,2.721 6.522,2.601 6.676,2.413 L6.676,1.897 ZM13.338,21.999 L3.324,21.999 L3.324,20.792 L13.338,20.792 L13.338,21.999 Z"/>
</g>

<g id="icon-alarm-fire" data-size="25 24">
    <path d="M9.097,-0.000 C16.494,-0.093 22.048,6.693 18.828,14.225 C17.479,17.381 14.696,19.414 10.849,20.044 C3.967,21.172 -1.990,13.381 0.631,6.516 C1.685,3.755 3.719,1.673 6.421,0.597 C7.223,0.277 8.217,0.355 9.097,-0.000 ZM22.575,7.311 C24.149,7.280 25.509,8.641 24.813,10.345 C24.577,10.923 24.100,11.143 23.694,11.539 C23.569,15.879 20.765,19.142 18.147,21.039 C17.385,21.503 16.622,21.968 15.860,22.432 C15.828,22.846 15.795,23.261 15.763,23.675 C15.125,24.132 13.677,23.974 12.600,23.974 C9.827,23.957 7.053,23.940 4.280,23.924 C3.880,23.615 3.602,19.880 3.940,19.050 C6.007,20.193 8.934,21.498 12.260,20.641 C13.667,20.278 14.672,19.490 15.860,19.050 C15.877,19.431 15.893,19.812 15.909,20.194 C18.546,18.756 21.732,15.386 21.796,11.390 C20.520,10.709 20.353,8.605 21.553,7.709 C21.894,7.577 22.234,7.444 22.575,7.311 ZM9.535,8.455 C9.088,8.705 8.707,8.851 8.465,9.301 C7.812,10.509 9.050,12.049 10.411,11.539 C12.014,10.939 11.590,8.363 9.535,8.455 Z"/>

</g>

<g id="icon-alarm-security" data-size="25 24">
    <path d="M12.650,-0.000 C13.055,0.071 13.384,0.184 13.564,0.466 C13.784,0.809 13.839,3.929 13.644,4.388 C13.542,4.630 13.303,4.834 13.047,4.932 C11.459,5.411 11.655,3.577 11.655,2.214 C11.655,1.672 11.554,0.860 11.775,0.505 C11.979,0.175 12.250,0.154 12.650,-0.000 ZM5.092,2.485 C5.318,2.524 5.543,2.563 5.769,2.602 C6.134,2.801 8.034,5.108 8.155,5.515 C8.312,6.042 7.966,6.520 7.718,6.680 C7.422,6.870 6.781,6.821 6.524,6.641 C6.134,6.367 4.054,3.891 4.217,3.262 C4.338,2.799 4.688,2.683 5.092,2.485 ZM19.889,2.835 C20.694,2.810 21.458,3.313 21.122,4.194 C20.949,4.646 18.934,6.862 18.497,7.029 C18.191,7.146 17.736,7.041 17.542,6.913 C16.120,5.974 19.186,3.268 19.889,2.835 ZM18.894,20.971 C14.652,20.971 10.409,20.971 6.166,20.971 C6.122,14.954 5.268,10.432 9.269,8.078 C10.116,7.579 11.489,6.948 13.008,7.184 C19.916,8.260 18.923,13.452 18.894,20.971 ZM12.491,8.583 C12.183,8.737 12.151,8.775 11.974,9.049 C12.001,9.310 12.052,9.456 12.252,9.553 C12.671,9.854 13.699,9.751 14.161,9.942 C15.996,10.700 16.190,11.855 16.707,13.903 C16.863,13.992 17.027,14.124 17.224,14.058 C17.490,14.022 17.579,13.919 17.661,13.709 C17.795,13.235 17.612,12.647 17.502,12.272 C16.887,10.165 15.232,8.591 12.491,8.583 ZM1.035,9.087 C2.165,9.157 5.859,9.577 5.053,11.146 C4.360,12.492 -2.577,10.652 1.035,9.087 ZM23.667,9.631 C24.696,9.606 25.414,10.493 24.741,11.301 C24.505,11.585 21.432,12.212 20.764,12.078 C20.451,12.015 20.147,11.806 20.008,11.573 C18.917,9.741 22.692,10.007 23.667,9.631 ZM20.446,24.000 C15.169,24.000 9.891,24.000 4.615,24.000 C4.615,23.961 4.615,23.922 4.615,23.883 C4.867,23.120 5.119,22.356 5.371,21.592 C10.143,21.592 14.917,21.592 19.690,21.592 C19.942,22.395 20.194,23.197 20.446,24.000 ZM8.990,22.019 C7.903,22.045 6.816,22.071 5.729,22.097 C5.570,22.576 5.411,23.055 5.252,23.534 C6.100,23.547 6.949,23.560 7.797,23.573 C8.314,23.081 8.831,22.589 9.348,22.097 C9.348,22.084 9.348,22.071 9.348,22.058 C9.229,22.045 9.110,22.032 8.990,22.019 Z"/>
</g>

<g id="icon-video" data-size="24 26">
    <path d="M22.194,3.846 C22.164,3.840 22.135,3.837 22.106,3.835 L22.107,3.830 L5.277,0.788 L5.276,0.794 C4.336,0.744 3.246,2.572 2.808,4.975 C2.370,7.377 2.681,9.446 3.579,9.730 L7.024,10.371 L7.024,14.067 C7.024,14.301 7.029,14.620 7.005,14.692 C7.005,14.693 6.941,14.787 6.693,14.942 L3.087,17.094 L3.087,15.111 C3.087,14.723 2.782,14.404 2.391,14.404 L0.750,14.404 C0.359,14.404 0.056,14.723 0.056,15.111 L0.056,24.646 C0.056,25.034 0.360,25.349 0.750,25.349 L2.391,25.349 C2.782,25.349 3.086,25.034 3.086,24.646 L3.086,20.839 L8.390,17.678 C10.262,16.504 10.274,15.153 10.274,14.067 L10.274,10.958 C10.274,10.958 20.526,12.811 20.554,12.817 C21.513,12.991 22.658,11.123 23.110,8.646 C23.563,6.168 23.152,4.019 22.194,3.846 ZM5.952,3.887 C5.515,3.808 5.224,3.391 5.304,2.955 C5.383,2.519 5.801,2.229 6.242,2.309 L18.264,4.482 C18.702,4.561 18.992,4.979 18.912,5.415 C18.841,5.803 18.503,6.074 18.120,6.074 C18.072,6.074 18.023,6.069 17.974,6.061 L5.952,3.887 ZM21.474,8.404 C21.168,10.081 20.394,11.346 19.744,11.227 C19.246,11.138 18.966,10.259 19.002,9.098 C19.553,9.097 20.043,8.705 20.145,8.147 C20.248,7.589 19.930,7.053 19.416,6.857 C19.794,5.776 20.360,5.067 20.853,5.156 C21.502,5.272 21.780,6.727 21.474,8.404 Z"/>
</g>

<g id="icon-access" data-size="24 17">
    <path d="M21.598,0.003 L2.395,0.003 C1.070,0.003 -0.005,1.089 -0.005,2.430 L-0.005,14.569 C-0.005,15.910 1.070,16.997 2.395,16.997 L21.598,16.997 C22.924,16.997 23.998,15.910 23.998,14.569 L23.998,2.430 C23.998,1.089 22.924,0.003 21.598,0.003 ZM4.496,4.792 C4.496,3.124 5.719,2.320 6.744,2.320 C7.804,2.320 8.992,3.124 8.992,4.792 L8.992,6.028 C8.992,7.696 7.345,8.500 6.744,8.500 C6.174,8.500 4.496,7.696 4.496,6.028 L4.496,4.792 ZM11.247,13.135 C11.247,14.256 10.880,14.679 9.746,14.679 L3.746,14.679 C2.612,14.679 2.246,14.256 2.246,13.135 C2.245,13.123 2.246,12.376 2.246,12.362 C2.246,11.513 2.622,10.317 3.953,9.391 C4.504,9.007 5.202,9.626 5.997,10.347 L6.216,10.572 C6.223,10.580 6.465,10.817 6.753,10.817 C7.045,10.817 7.279,10.569 7.279,10.569 L7.279,10.569 L7.496,10.347 C8.290,9.626 8.891,9.018 9.540,9.391 C10.943,10.195 11.247,11.514 11.247,12.362 C11.247,12.376 11.248,13.123 11.247,13.135 ZM20.998,13.135 L14.247,13.135 C13.832,13.135 13.497,12.789 13.497,12.362 C13.497,11.936 13.832,11.590 14.247,11.590 L20.998,11.590 C21.412,11.590 21.748,11.936 21.748,12.362 C21.748,12.789 21.412,13.135 20.998,13.135 ZM20.998,9.272 L14.247,9.272 C13.832,9.272 13.497,8.926 13.497,8.500 C13.497,8.073 13.832,7.727 14.247,7.727 L20.998,7.727 C21.412,7.727 21.748,8.073 21.748,8.500 C21.748,8.926 21.412,9.272 20.998,9.272 ZM20.998,5.410 L14.247,5.410 C13.832,5.410 13.497,5.064 13.497,4.637 C13.497,4.211 13.832,3.865 14.247,3.865 L20.998,3.865 C21.412,3.865 21.748,4.211 21.748,4.637 C21.748,5.064 21.412,5.410 20.998,5.410 Z"/>
</g>

<g id="icon-security" data-size="19 23">
    <path d="M18.089,4.108 C14.408,4.108 11.587,3.056 9.203,0.737 C6.818,3.056 3.998,4.108 0.317,4.108 C0.317,10.148 -0.933,18.799 9.203,22.312 C19.339,18.799 18.089,10.148 18.089,4.108 ZM8.466,14.736 L5.506,11.775 L6.832,10.449 L8.466,12.085 L11.574,8.977 L12.899,10.302 L8.466,14.736 Z"/>
</g>

<g id="icon-parking" data-size="40 39">
    <path d="M34.416,38.980 L5.584,38.980 C3.039,38.980 0.975,36.914 0.975,34.365 L0.975,4.635 C0.975,2.086 3.038,0.020 5.584,0.020 L34.416,0.020 C36.962,0.020 39.025,2.085 39.025,4.635 L39.025,34.365 C39.025,36.913 36.962,38.980 34.416,38.980 ZM36.184,33.625 L36.184,5.428 C36.184,4.042 35.062,2.918 33.677,2.918 L6.270,2.918 C4.884,2.918 3.762,4.042 3.762,5.428 L3.762,33.625 C3.762,35.012 4.884,36.136 6.270,36.136 L33.678,36.136 C35.062,36.136 36.185,35.013 36.185,33.625 L36.184,33.625 ZM33.677,34.366 L6.270,34.366 C5.861,34.366 5.530,34.034 5.530,33.626 L5.530,5.429 C5.530,5.020 5.862,4.689 6.270,4.689 L33.677,4.689 C34.085,4.689 34.416,5.020 34.416,5.428 L34.416,33.626 C34.416,34.035 34.084,34.366 33.677,34.366 ZM25.971,10.777 C24.538,9.629 22.411,9.055 19.419,9.055 C16.459,9.055 14.373,9.246 12.872,9.502 L12.872,30.716 L17.642,30.716 L17.642,23.015 C18.124,23.079 18.669,23.111 19.305,23.111 C22.170,23.111 24.628,22.410 26.282,20.849 C27.557,19.638 28.260,17.853 28.260,15.748 C28.260,13.645 27.339,11.860 25.971,10.777 ZM19.273,19.381 C18.573,19.381 18.070,19.350 17.642,19.254 L17.642,12.912 C18.017,12.816 18.668,12.721 19.655,12.721 C22.074,12.721 23.443,13.899 23.444,15.876 C23.444,18.074 21.852,19.381 19.273,19.381 Z"/>
</g>

<g id="icon-parking-down" data-size="24 25">
    <path d="M23.492,8.818 C23.241,9.206 22.819,9.416 22.388,9.416 C22.143,9.416 21.896,9.349 21.675,9.206 L12.045,2.922 L2.402,9.201 C1.796,9.599 0.981,9.432 0.582,8.827 C0.183,8.221 0.351,7.408 0.957,7.009 L10.716,0.654 C11.515,0.129 12.551,0.124 13.353,0.643 L23.103,7.004 C23.712,7.398 23.887,8.210 23.492,8.818 ZM3.432,14.918 C3.513,14.459 3.912,14.119 4.379,14.119 L4.915,14.119 L5.118,12.002 C5.336,9.739 7.217,8.026 9.495,8.026 L14.575,8.026 C16.853,8.026 18.734,9.739 18.952,12.002 L19.155,14.119 L19.691,14.119 C20.157,14.119 20.557,14.459 20.638,14.918 L21.436,19.436 C21.535,19.997 21.378,20.569 21.012,21.005 C20.661,21.423 20.146,21.670 19.604,21.689 L19.604,22.437 C19.604,23.499 18.745,24.355 17.682,24.355 L17.077,24.355 C16.014,24.355 15.157,23.499 15.157,22.437 L15.157,21.701 L8.920,21.701 L8.920,22.439 C8.920,23.500 8.055,24.355 6.992,24.355 L6.387,24.355 C5.324,24.355 4.472,23.500 4.472,22.439 L4.472,21.689 C3.930,21.670 3.411,21.421 3.059,21.003 C2.694,20.568 2.535,19.992 2.634,19.433 L3.432,14.918 ZM17.911,19.960 C18.808,19.960 19.536,19.234 19.536,18.338 C19.536,17.441 18.808,16.715 17.911,16.715 C17.014,16.715 16.287,17.441 16.287,18.338 C16.287,19.234 17.014,19.960 17.911,19.960 ZM17.508,14.120 L17.320,12.167 C17.184,10.747 16.004,9.678 14.576,9.678 L14.290,9.678 L14.290,10.291 C14.290,10.824 13.859,11.248 13.326,11.248 L10.745,11.248 C10.212,11.248 9.788,10.824 9.788,10.291 L9.788,9.678 L9.495,9.678 C8.067,9.678 6.887,10.747 6.750,12.166 L6.563,14.119 L6.563,14.120 L17.508,14.120 ZM6.158,19.960 C7.055,19.960 7.783,19.234 7.783,18.338 C7.783,17.441 7.055,16.715 6.158,16.715 C5.261,16.715 4.534,17.441 4.534,18.338 C4.534,19.234 5.261,19.960 6.158,19.960 Z"/>
</g>

<g id="icon-cafe" data-size="24 23">
    <path d="M22.705,22.948 C22.234,22.948 21.852,22.567 21.852,22.096 L21.852,11.655 L21.326,11.655 C21.067,11.655 20.822,11.543 20.651,11.348 C20.481,11.154 20.403,10.896 20.438,10.639 L21.747,0.905 C21.807,0.460 22.187,0.128 22.635,0.128 C23.130,0.128 23.532,0.529 23.532,1.025 L23.558,22.096 C23.558,22.567 23.176,22.948 22.705,22.948 ZM12.665,17.335 C9.532,17.335 6.984,14.787 6.984,11.655 C6.984,8.523 9.532,5.974 12.665,5.974 C15.797,5.974 18.345,8.523 18.345,11.655 C18.345,14.787 15.797,17.335 12.665,17.335 ZM19.334,10.120 C18.636,7.083 15.911,4.811 12.665,4.811 C8.891,4.811 5.821,7.881 5.821,11.655 C5.821,15.428 8.891,18.498 12.665,18.498 C16.415,18.498 19.471,15.464 19.507,11.722 C19.581,11.861 19.670,11.993 19.776,12.114 C20.023,12.396 20.340,12.603 20.689,12.716 L20.689,16.802 L20.689,16.943 C18.967,19.547 16.013,21.268 12.665,21.268 C9.478,21.268 6.649,19.709 4.899,17.314 L4.899,17.183 L4.899,9.556 C5.968,8.876 6.643,7.685 6.643,6.382 L6.643,6.305 L6.643,4.354 L6.643,4.265 L6.643,4.166 C8.292,2.837 10.387,2.040 12.665,2.040 C15.584,2.040 18.203,3.349 19.968,5.410 L19.954,5.514 L19.334,10.120 ZM3.736,8.913 L3.736,22.096 C3.736,22.567 3.354,22.948 2.883,22.948 C2.412,22.948 2.030,22.567 2.030,22.096 L2.030,8.913 C1.016,8.559 0.286,7.593 0.286,6.460 L0.286,1.214 C0.286,0.893 0.546,0.633 0.867,0.633 C1.188,0.633 1.448,0.893 1.448,1.214 L1.448,4.431 L2.301,4.431 L2.301,1.214 C2.301,0.893 2.562,0.633 2.883,0.633 C3.204,0.633 3.464,0.893 3.464,1.214 L3.464,4.431 L4.317,4.431 L4.317,1.214 C4.317,0.893 4.577,0.633 4.899,0.633 C5.220,0.633 5.480,0.893 5.480,1.214 L5.480,6.460 C5.480,7.593 4.750,8.559 3.736,8.913 Z"/>
</g>

<g id="icon-bank" data-size="24 24">
    <path d="M11.844,-0.000 C12.993,0.001 13.984,0.823 14.869,1.214 C17.149,2.240 19.430,3.268 21.710,4.294 C22.474,4.670 24.741,5.203 23.757,6.628 C23.270,7.333 19.831,7.049 18.545,7.048 C14.156,7.048 9.765,7.048 5.376,7.048 C4.305,7.048 1.129,7.302 0.536,6.862 C-1.031,5.698 1.388,4.662 2.118,4.341 C5.360,2.894 8.603,1.447 11.844,-0.000 ZM21.244,9.102 C21.244,12.369 21.244,15.638 21.244,18.905 C22.716,18.882 23.029,20.726 21.803,21.052 C15.242,21.036 8.679,21.021 2.118,21.005 C0.978,20.541 1.445,18.884 2.816,18.905 C2.816,15.638 2.816,12.369 2.816,9.102 C2.661,9.087 2.506,9.071 2.351,9.056 C2.242,8.962 2.134,8.869 2.025,8.775 C2.023,8.351 2.126,8.289 2.305,8.075 C6.508,8.060 10.712,8.044 14.915,8.029 C16.962,8.029 19.990,7.686 21.803,8.122 C21.936,8.308 22.010,8.360 22.035,8.682 C21.927,8.822 21.818,8.962 21.710,9.102 C21.554,9.102 21.399,9.102 21.244,9.102 ZM5.004,9.102 C5.004,12.369 5.004,15.638 5.004,18.905 C6.074,18.905 7.144,18.905 8.214,18.905 C8.214,15.638 8.214,12.369 8.214,9.102 C7.144,9.102 6.074,9.102 5.004,9.102 ZM10.402,9.102 C10.402,12.369 10.402,15.638 10.402,18.905 C11.487,18.905 12.573,18.905 13.659,18.905 C13.644,15.638 13.628,12.369 13.612,9.102 C12.542,9.102 11.472,9.102 10.402,9.102 ZM15.800,18.905 C16.885,18.905 17.971,18.905 19.057,18.905 C19.057,15.638 19.057,12.369 19.057,9.102 C17.971,9.118 16.885,9.133 15.800,9.149 C15.800,12.401 15.800,15.653 15.800,18.905 ZM1.141,21.705 C7.004,21.705 12.869,21.705 18.731,21.705 C20.296,21.705 24.226,21.114 23.943,22.919 C23.701,24.465 20.149,23.899 18.406,23.899 C12.620,23.899 6.833,23.899 1.048,23.899 C-0.440,23.572 0.009,22.209 1.141,21.705 Z"/>
</g>

<g id="icon-exchange" data-size="24 24">
    <path d="M3.734,15.691 C4.348,15.691 4.962,15.691 5.576,15.691 C5.576,17.535 5.576,19.379 5.576,21.223 C3.734,21.223 1.891,21.223 0.049,21.223 C0.049,20.608 0.049,19.993 0.049,19.379 C0.890,19.379 1.732,19.379 2.573,19.379 C2.555,19.360 2.536,19.342 2.518,19.324 C2.389,19.145 2.260,18.967 2.131,18.789 C1.897,18.402 1.664,18.014 1.431,17.627 C0.704,16.387 0.404,14.919 0.104,13.238 C-0.275,11.112 0.458,8.569 1.062,7.190 C2.523,3.857 5.086,1.598 8.763,0.477 C10.156,0.053 12.342,-0.188 14.014,0.182 C14.953,0.390 15.822,0.616 16.630,0.938 C16.630,1.614 16.630,2.291 16.630,2.967 C15.885,2.614 15.119,2.309 14.217,2.081 C12.717,1.703 10.610,1.837 9.279,2.247 C6.183,3.203 4.005,5.058 2.776,7.872 C2.265,9.040 1.614,11.160 1.928,12.980 C2.142,14.216 2.368,15.231 2.794,16.207 C3.042,16.774 3.490,17.247 3.715,17.793 C3.721,17.793 3.728,17.793 3.734,17.793 C3.734,17.092 3.734,16.391 3.734,15.691 ZM18.473,2.782 C20.315,2.782 22.158,2.782 24.000,2.782 C24.000,3.397 24.000,4.012 24.000,4.626 C23.159,4.626 22.317,4.626 21.476,4.626 C22.361,5.927 23.107,7.215 23.613,8.941 C24.279,11.214 23.974,14.315 23.226,16.226 C21.823,19.812 19.242,22.336 15.414,23.491 C13.977,23.925 11.783,24.198 10.035,23.823 C9.096,23.622 8.225,23.389 7.418,23.067 C7.418,22.391 7.418,21.715 7.418,21.039 C8.164,21.391 8.930,21.696 9.832,21.924 C11.332,22.302 13.439,22.169 14.770,21.758 C17.865,20.802 20.044,18.947 21.273,16.133 C21.784,14.965 22.435,12.845 22.121,11.025 C21.907,9.789 21.681,8.774 21.255,7.798 C21.007,7.231 20.559,6.758 20.334,6.212 C20.327,6.212 20.321,6.212 20.315,6.212 C20.315,6.913 20.315,7.614 20.315,8.314 C19.701,8.314 19.087,8.314 18.473,8.314 C18.473,6.471 18.473,4.626 18.473,2.782 ZM11.103,4.626 C11.717,4.626 12.332,4.626 12.946,4.626 C12.946,5.241 12.946,5.856 12.946,6.470 C13.560,6.470 14.174,6.470 14.788,6.470 C14.788,7.085 14.788,7.700 14.788,8.314 C13.971,8.314 13.154,8.314 12.338,8.314 C11.884,8.314 11.358,8.272 11.030,8.407 C10.666,8.556 10.413,8.838 10.274,9.218 C10.185,9.462 10.149,9.836 10.237,10.122 C10.679,11.557 12.581,10.812 13.830,11.357 C16.623,12.577 16.178,17.204 12.946,17.498 C12.946,18.125 12.946,18.752 12.946,19.379 C12.332,19.379 11.717,19.379 11.103,19.379 C11.103,18.764 11.103,18.149 11.103,17.535 C10.489,17.535 9.875,17.535 9.261,17.535 C9.261,16.920 9.261,16.305 9.261,15.691 C10.078,15.691 10.895,15.691 11.711,15.691 C12.165,15.691 12.691,15.733 13.019,15.599 C13.383,15.449 13.635,15.167 13.775,14.787 C13.864,14.543 13.900,14.169 13.812,13.884 C13.370,12.449 11.468,13.193 10.219,12.648 C7.426,11.429 7.871,6.801 11.103,6.507 C11.103,5.880 11.103,5.253 11.103,4.626 Z"/>
</g>

<g id="icon-atm" data-size="20 24">
    <path  d="M2.594,-0.000 C6.440,-0.000 10.288,-0.000 14.134,-0.000 C14.841,0.143 15.601,0.615 15.982,1.098 C16.802,2.136 16.655,4.001 16.655,5.876 C16.636,9.666 16.617,13.456 16.599,17.245 C16.381,18.019 15.778,18.739 15.142,19.112 C14.121,19.711 12.026,19.497 10.437,19.497 C6.451,19.497 1.211,20.350 0.186,17.355 C-0.101,16.519 0.073,15.136 0.074,14.114 C0.074,11.479 0.074,8.842 0.074,6.206 C0.073,4.895 -0.174,3.004 0.242,1.977 C0.699,0.846 1.521,0.547 2.594,-0.000 ZM3.154,2.197 C2.169,2.814 2.091,4.631 2.482,6.041 C3.724,6.943 9.034,6.480 11.221,6.481 C12.155,6.481 13.561,6.648 14.078,6.206 C14.492,5.852 14.636,3.874 14.414,3.021 C14.146,1.992 12.804,2.197 11.501,2.197 C8.719,2.197 5.936,2.197 3.154,2.197 ZM18.951,4.284 C19.349,4.433 19.745,4.567 19.904,4.943 C19.922,7.945 19.941,10.948 19.960,13.950 C19.960,15.191 20.234,16.785 19.344,17.190 C18.028,17.911 17.719,16.432 17.719,15.323 C17.719,12.723 17.719,10.123 17.719,7.524 C17.719,6.320 17.484,4.843 18.335,4.449 C18.541,4.394 18.746,4.339 18.951,4.284 ZM2.594,8.677 C2.520,8.732 2.445,8.787 2.370,8.842 C2.238,9.450 2.277,10.378 2.538,10.764 C3.404,10.779 4.854,10.950 5.507,10.654 C5.624,10.116 5.629,9.109 5.395,8.732 C4.462,8.714 3.528,8.696 2.594,8.677 ZM7.020,8.677 C6.945,8.732 6.870,8.787 6.796,8.842 C6.681,9.371 6.679,10.340 6.908,10.709 C7.708,10.870 9.457,10.896 9.989,10.545 C10.008,9.921 10.052,9.110 9.821,8.732 C8.887,8.714 7.953,8.696 7.020,8.677 ZM11.389,8.677 C11.314,8.751 11.240,8.824 11.165,8.897 C11.142,9.599 11.115,10.370 11.389,10.764 C12.272,10.782 13.769,10.940 14.358,10.600 C14.358,10.014 14.358,9.428 14.358,8.842 C13.689,8.542 12.332,8.666 11.389,8.677 ZM2.594,11.918 C2.520,12.027 2.445,12.137 2.370,12.247 C2.370,12.741 2.370,13.236 2.370,13.730 C2.464,13.840 2.557,13.950 2.650,14.059 C3.565,14.041 4.480,14.023 5.395,14.005 C5.530,13.667 5.539,12.379 5.339,11.973 C4.424,11.954 3.509,11.936 2.594,11.918 ZM7.076,12.027 C7.020,12.101 6.964,12.174 6.908,12.247 C6.711,12.678 6.842,13.722 7.020,14.005 C7.795,14.116 9.343,14.199 9.933,13.895 C9.933,13.309 9.933,12.723 9.933,12.137 C9.877,12.119 9.821,12.101 9.765,12.082 C8.868,12.064 7.972,12.046 7.076,12.027 ZM11.501,12.027 C11.426,12.082 11.352,12.137 11.277,12.192 C11.257,12.816 11.214,13.626 11.445,14.005 C12.247,14.116 13.590,14.143 14.302,13.950 C14.445,13.519 14.463,12.647 14.358,12.137 C14.302,12.119 14.246,12.101 14.190,12.082 C13.294,12.064 12.397,12.046 11.501,12.027 ZM2.594,15.158 C2.520,15.268 2.445,15.378 2.370,15.487 C2.370,15.982 2.370,16.476 2.370,16.970 C2.464,17.080 2.557,17.190 2.650,17.300 C3.565,17.281 4.480,17.263 5.395,17.245 C5.530,16.907 5.539,15.620 5.339,15.213 C4.424,15.195 3.509,15.176 2.594,15.158 ZM7.076,15.268 C7.020,15.341 6.964,15.414 6.908,15.487 C6.711,15.918 6.842,16.963 7.020,17.245 C7.842,17.365 9.430,17.435 9.989,17.080 C9.970,16.513 9.951,15.945 9.933,15.378 C9.877,15.359 9.821,15.341 9.765,15.323 C8.868,15.304 7.972,15.286 7.076,15.268 ZM11.501,15.268 C11.426,15.323 11.352,15.378 11.277,15.432 C11.296,15.982 11.314,16.531 11.333,17.080 C11.411,17.186 11.339,17.113 11.445,17.190 C11.922,17.502 14.125,17.405 14.358,17.025 C14.358,16.476 14.358,15.927 14.358,15.378 C14.302,15.359 14.246,15.341 14.190,15.323 C13.294,15.304 12.397,15.286 11.501,15.268 ZM2.258,20.430 C3.024,20.430 3.789,20.430 4.555,20.430 C4.521,22.117 6.138,21.862 7.804,21.803 C7.804,21.346 7.804,20.888 7.804,20.430 C8.924,20.430 10.045,20.430 11.165,20.430 C11.165,20.888 11.165,21.346 11.165,21.803 C11.893,21.710 12.230,21.235 12.229,20.430 C12.976,20.430 13.723,20.430 14.470,20.430 C14.520,23.926 11.946,24.000 8.364,24.000 C4.758,24.000 2.252,23.909 2.258,20.430 Z"/>
</g>

<g id="icon-market" data-size="24 24">
    <path d="M-0.000,-0.000 C1.331,-0.000 2.663,-0.000 3.995,-0.000 C4.339,0.795 4.684,1.591 5.028,2.387 C9.728,2.387 14.428,2.387 19.127,2.387 C20.486,2.386 23.303,2.016 23.874,2.854 C24.505,3.782 22.575,6.415 22.135,7.160 C21.360,8.470 19.806,12.198 18.704,12.869 C17.977,13.312 16.619,13.196 15.461,13.196 C13.143,13.196 10.824,13.196 8.506,13.196 C8.282,13.851 7.229,14.908 7.613,15.583 C12.297,15.583 16.981,15.583 21.665,15.583 C21.665,16.378 21.665,17.174 21.665,17.969 C17.749,17.969 13.832,17.969 9.916,17.969 C7.418,17.970 5.460,18.150 4.887,16.238 C4.256,14.130 6.349,12.951 6.720,11.418 C5.264,8.408 3.806,5.397 2.350,2.387 C1.567,2.387 0.783,2.387 -0.000,2.387 C-0.000,1.591 -0.000,0.795 -0.000,-0.000 ZM6.767,19.186 C10.341,19.074 10.465,23.403 7.566,23.959 C5.803,24.297 4.368,22.513 4.887,20.871 C5.198,19.889 5.887,19.617 6.767,19.186 ZM18.798,19.186 C22.372,19.074 22.496,23.403 19.597,23.959 C17.834,24.297 16.399,22.513 16.918,20.871 C17.229,19.889 17.918,19.617 18.798,19.186 Z"/>
</g>

<g id="icon-farm" data-size="26 24">
    <path d="M6.871,4.798 C6.850,3.266 6.595,1.082 7.477,0.432 C8.050,0.010 9.227,0.124 10.202,0.124 C12.108,0.124 17.584,-0.323 18.630,0.483 C19.586,1.220 18.847,3.413 19.185,4.798 C20.599,4.785 24.478,4.476 25.292,5.055 C26.197,5.699 25.948,7.721 25.948,9.268 C25.948,12.572 25.948,15.878 25.948,19.182 C25.948,20.471 26.184,22.434 25.645,23.241 C24.893,24.367 21.537,23.909 19.740,23.908 C13.668,23.908 7.594,23.908 1.522,23.908 C-0.154,23.582 0.109,21.853 0.109,19.850 C0.109,16.597 0.109,13.343 0.109,10.090 C0.109,8.823 -0.193,6.825 0.210,5.774 C0.808,4.215 4.786,4.778 6.871,4.798 ZM9.849,3.154 C9.849,3.702 9.849,4.250 9.849,4.798 C11.968,4.781 14.088,4.764 16.208,4.747 C16.191,4.216 16.174,3.685 16.157,3.154 C14.055,3.154 11.952,3.154 9.849,3.154 ZM22.920,20.878 C22.903,16.511 22.886,12.144 22.869,7.778 C16.276,7.795 9.680,7.812 3.086,7.829 C3.103,12.178 3.120,16.529 3.137,20.878 C9.731,20.878 16.326,20.878 22.920,20.878 ZM14.643,9.627 C14.643,10.655 14.643,11.682 14.643,12.710 C18.240,12.631 17.769,12.415 17.671,16.049 C16.662,16.049 15.653,16.049 14.643,16.049 C14.643,17.076 14.643,18.104 14.643,19.131 C13.550,19.114 12.456,19.097 11.363,19.080 C11.363,18.069 11.363,17.059 11.363,16.049 C10.354,16.049 9.344,16.049 8.335,16.049 C8.352,14.936 8.369,13.822 8.385,12.710 C9.378,12.710 10.371,12.710 11.363,12.710 C11.380,11.682 11.397,10.655 11.413,9.627 C12.490,9.627 13.567,9.627 14.643,9.627 Z"/>
</g>

<g id="icon-fitness" data-size="24 24">
    <path d="M16.907,-0.000 C16.984,0.013 17.061,0.026 17.137,0.038 C17.746,0.324 18.181,1.102 18.633,1.572 C19.923,2.952 21.214,4.332 22.505,5.712 C22.925,6.233 23.893,6.746 24.000,7.514 C23.717,8.065 22.947,8.816 22.351,9.048 C21.726,8.727 21.208,8.007 20.780,7.476 C19.527,6.134 18.275,4.792 17.022,3.450 C16.689,3.056 15.507,2.161 15.412,1.687 C15.329,1.274 16.642,0.246 16.907,-0.000 ZM14.645,2.224 C15.449,2.375 16.174,3.581 16.639,4.141 C17.840,5.444 19.042,6.748 20.243,8.051 C20.672,8.583 21.317,8.973 21.623,9.623 C21.533,10.219 20.487,11.033 19.974,11.233 C19.226,10.929 18.580,9.955 18.096,9.355 C16.933,8.090 15.770,6.824 14.607,5.559 C14.165,5.060 13.158,4.461 13.073,3.681 C13.490,3.114 14.033,2.595 14.645,2.224 ZM14.530,7.093 C14.607,7.105 14.684,7.118 14.760,7.131 C15.185,7.435 16.723,8.976 16.754,9.546 C16.300,10.240 15.478,10.869 14.837,11.387 C13.598,12.549 12.358,13.713 11.118,14.875 C10.799,15.182 9.634,16.553 9.125,16.371 C8.660,16.159 7.345,14.642 7.131,14.147 C7.228,13.514 8.721,12.399 9.201,12.000 C10.402,10.876 11.604,9.751 12.805,8.626 C13.394,8.117 13.833,7.505 14.530,7.093 ZM3.987,12.767 C4.632,12.944 5.140,13.752 5.521,14.224 C6.837,15.642 8.153,17.061 9.470,18.479 C9.886,18.995 10.870,19.515 10.965,20.281 C10.737,20.599 9.631,21.835 9.240,21.738 C8.579,21.604 8.053,20.602 7.629,20.166 C6.339,18.761 5.048,17.354 3.757,15.949 C3.356,15.451 2.459,14.984 2.377,14.224 C2.833,13.671 3.367,13.153 3.987,12.767 ZM1.610,14.952 C2.216,15.159 2.730,15.943 3.105,16.409 C4.396,17.802 5.687,19.195 6.978,20.588 C7.287,20.941 8.516,21.939 8.588,22.351 C8.653,22.723 7.347,23.764 7.093,24.000 C7.016,23.987 6.939,23.974 6.863,23.962 C6.239,23.669 5.796,22.868 5.329,22.390 C4.038,21.010 2.747,19.629 1.457,18.249 C1.045,17.739 0.105,17.239 -0.000,16.486 C0.314,15.879 1.035,15.306 1.610,14.952 Z"/>
</g>

<g id="icon-beauty" data-size="26 24">
    <path d="M6.756,-0.000 C8.362,-0.021 9.540,0.441 10.807,0.761 C13.879,1.505 16.952,2.249 20.024,2.993 C20.024,5.681 20.024,8.370 20.024,11.058 C17.796,11.616 15.567,12.174 13.339,12.732 C12.158,13.034 10.810,13.132 9.997,13.798 C8.788,14.787 8.004,18.684 7.617,20.544 C7.318,21.982 8.286,22.571 8.073,23.588 C7.212,24.661 2.809,23.387 2.350,22.624 C1.511,21.230 3.179,16.704 2.755,14.406 C2.321,12.050 0.934,11.087 0.324,9.080 C-0.934,4.940 1.699,1.613 4.376,0.507 C5.086,0.214 5.955,0.309 6.756,-0.000 ZM21.442,2.993 C22.898,2.986 23.427,3.594 24.379,3.906 C24.835,3.957 25.291,4.007 25.747,4.058 C25.831,4.143 25.916,4.227 26.000,4.312 C26.002,4.736 25.911,4.798 25.747,5.022 C24.293,5.165 23.631,4.487 22.658,4.160 C22.202,4.109 21.746,4.058 21.290,4.007 C21.206,3.906 21.121,3.804 21.037,3.703 C21.037,3.568 21.037,3.432 21.037,3.297 C21.105,3.213 21.172,3.128 21.240,3.044 C21.307,3.027 21.375,3.010 21.442,2.993 ZM6.553,4.058 C5.405,4.578 4.593,4.912 4.173,6.138 C3.417,8.349 5.480,10.418 7.566,9.993 C11.084,9.277 10.865,3.949 6.553,4.058 ZM21.493,5.986 C22.896,6.000 23.445,6.583 24.379,6.899 C24.896,7.073 25.555,6.959 25.949,7.203 C25.966,7.237 25.983,7.271 26.000,7.305 C26.002,7.729 25.911,7.791 25.747,8.015 C24.343,8.159 23.680,7.558 22.759,7.203 C22.269,7.136 21.780,7.068 21.290,7.000 C21.206,6.899 21.121,6.797 21.037,6.696 C20.964,6.389 21.087,6.242 21.240,6.036 C21.324,6.020 21.408,6.003 21.493,5.986 ZM21.493,8.979 C22.991,9.137 23.362,9.546 24.379,9.892 C24.889,10.065 25.553,9.967 25.949,10.196 C25.949,10.416 25.949,10.636 25.949,10.855 C25.848,10.906 25.747,10.957 25.645,11.008 C24.405,11.349 23.524,10.491 22.759,10.196 C22.269,10.128 21.780,10.061 21.290,9.993 C21.206,9.892 21.121,9.790 21.037,9.689 C20.973,9.422 21.059,9.273 21.189,9.080 C21.290,9.046 21.392,9.012 21.493,8.979 Z"/>
</g>

<g id="icon-clean" data-size="18 24">
    <path d="M18.000,3.671 C12.015,3.671 6.028,3.671 0.043,3.671 C0.047,2.676 0.052,1.680 0.056,0.685 C0.101,0.495 0.220,0.311 0.353,0.208 C0.617,0.003 1.110,0.044 1.581,0.044 C2.485,0.044 3.389,0.044 4.293,0.044 C7.548,0.039 10.805,0.035 14.060,0.030 C14.879,0.030 15.698,0.030 16.516,0.030 C16.974,0.030 17.432,-0.002 17.690,0.194 C17.817,0.290 17.939,0.470 17.986,0.644 C17.991,1.653 17.995,2.662 18.000,3.671 ZM2.566,0.958 C2.199,1.124 1.934,1.222 1.824,1.639 C1.663,2.248 2.225,2.877 2.809,2.771 C3.903,2.573 3.861,0.929 2.566,0.958 ZM5.197,0.958 C4.829,1.124 4.565,1.222 4.455,1.639 C4.293,2.248 4.855,2.877 5.440,2.771 C6.530,2.573 6.492,0.929 5.197,0.958 ZM17.959,24.000 C11.974,23.995 5.988,23.991 0.003,23.986 C0.003,19.278 0.003,14.569 0.003,9.861 C0.003,8.752 0.003,7.643 0.003,6.534 C0.002,5.935 -0.045,5.389 0.286,5.130 C0.725,4.786 2.311,4.939 3.092,4.939 C5.547,4.939 8.003,4.939 10.458,4.939 C12.163,4.939 13.867,4.939 15.572,4.939 C16.207,4.939 17.227,4.809 17.622,5.089 C18.002,5.357 17.960,5.890 17.959,6.548 C17.959,7.634 17.959,8.720 17.959,9.806 C17.959,14.537 17.959,19.269 17.959,24.000 ZM8.745,8.143 C8.561,8.157 8.376,8.170 8.192,8.184 C7.757,8.264 7.338,8.323 6.964,8.470 C5.275,9.134 4.106,10.288 3.443,11.988 C3.307,12.335 3.239,12.724 3.159,13.120 C2.984,13.986 3.154,15.043 3.362,15.710 C3.915,17.480 5.052,18.695 6.667,19.391 C7.217,19.628 8.372,19.992 9.258,19.841 C9.683,19.769 10.084,19.752 10.458,19.637 C12.244,19.086 13.540,17.907 14.236,16.256 C14.799,14.918 14.780,13.113 14.236,11.783 C13.415,9.777 11.555,8.134 8.745,8.143 ZM4.239,12.411 C4.662,12.793 5.376,13.167 6.141,12.847 C6.319,12.773 6.457,12.640 6.613,12.547 C7.227,13.003 8.326,13.187 8.880,12.506 C8.902,12.529 8.925,12.551 8.947,12.574 C9.096,12.665 9.244,12.756 9.393,12.847 C10.105,13.146 10.785,12.823 11.214,12.492 C11.223,12.492 11.232,12.492 11.241,12.492 C11.539,12.897 12.394,13.106 13.008,12.861 C13.223,12.775 13.391,12.636 13.561,12.506 C13.566,12.506 13.570,12.506 13.575,12.506 C13.659,12.978 13.854,13.575 13.750,14.210 C13.401,16.338 12.437,17.708 10.701,18.410 C9.545,18.877 8.052,18.818 6.964,18.342 C4.973,17.469 3.543,15.339 4.239,12.411 Z"/>
</g>

<g id="icon-reception" data-size="34 24">
    <path d="M18.267,2.757 C18.267,3.182 18.267,3.607 18.267,4.032 C25.444,4.930 31.273,10.422 31.242,18.600 C21.715,18.600 12.184,18.600 2.657,18.600 C2.572,10.394 8.496,4.974 15.632,4.032 C15.632,3.607 15.632,3.182 15.632,2.757 C14.865,2.794 13.967,2.807 13.525,2.488 C12.723,1.911 13.074,0.379 13.854,0.071 C14.776,0.049 15.698,0.027 16.620,0.004 C18.850,0.004 22.301,-0.215 20.374,2.488 C19.792,2.675 19.142,2.764 18.267,2.757 ZM1.011,19.876 C9.506,19.876 18.004,19.876 26.500,19.876 C29.460,19.875 35.101,18.618 33.811,22.964 C33.371,24.444 27.898,23.904 25.841,23.903 C17.631,23.903 9.418,23.903 1.208,23.903 C-0.578,23.501 -0.154,20.657 1.011,19.876 Z"/>
</g>

<g id="icon-tile" data-size="22 16">
    <path d="M-0.000,-0.000 C1.333,-0.000 2.667,-0.000 4.000,-0.000 C4.000,1.333 4.000,2.667 4.000,4.000 C2.667,4.000 1.333,4.000 -0.000,4.000 C-0.000,2.667 -0.000,1.333 -0.000,-0.000 ZM6.000,-0.000 C7.333,-0.000 8.667,-0.000 10.000,-0.000 C10.000,1.333 10.000,2.667 10.000,4.000 C8.667,4.000 7.333,4.000 6.000,4.000 C6.000,2.667 6.000,1.333 6.000,-0.000 ZM12.000,-0.000 C13.333,-0.000 14.667,-0.000 16.000,-0.000 C16.000,1.333 16.000,2.667 16.000,4.000 C14.667,4.000 13.333,4.000 12.000,4.000 C12.000,2.667 12.000,1.333 12.000,-0.000 ZM18.000,-0.000 C19.333,-0.000 20.667,-0.000 22.000,-0.000 C22.000,1.333 22.000,2.667 22.000,4.000 C20.667,4.000 19.333,4.000 18.000,4.000 C18.000,2.667 18.000,1.333 18.000,-0.000 ZM-0.000,6.000 C1.333,6.000 2.667,6.000 4.000,6.000 C4.000,7.333 4.000,8.667 4.000,10.000 C2.667,10.000 1.333,10.000 -0.000,10.000 C-0.000,8.667 -0.000,7.333 -0.000,6.000 ZM6.000,6.000 C7.333,6.000 8.667,6.000 10.000,6.000 C10.000,7.333 10.000,8.667 10.000,10.000 C8.667,10.000 7.333,10.000 6.000,10.000 C6.000,8.667 6.000,7.333 6.000,6.000 ZM12.000,6.000 C13.333,6.000 14.667,6.000 16.000,6.000 C16.000,7.333 16.000,8.667 16.000,10.000 C14.667,10.000 13.333,10.000 12.000,10.000 C12.000,8.667 12.000,7.333 12.000,6.000 ZM18.000,6.000 C19.333,6.000 20.667,6.000 22.000,6.000 C22.000,7.333 22.000,8.667 22.000,10.000 C20.667,10.000 19.333,10.000 18.000,10.000 C18.000,8.667 18.000,7.333 18.000,6.000 ZM-0.000,12.000 C1.333,12.000 2.667,12.000 4.000,12.000 C4.000,13.333 4.000,14.667 4.000,16.000 C2.667,16.000 1.333,16.000 -0.000,16.000 C-0.000,14.667 -0.000,13.333 -0.000,12.000 ZM6.000,12.000 C7.333,12.000 8.667,12.000 10.000,12.000 C10.000,13.333 10.000,14.667 10.000,16.000 C8.667,16.000 7.333,16.000 6.000,16.000 C6.000,14.667 6.000,13.333 6.000,12.000 ZM12.000,12.000 C13.333,12.000 14.667,12.000 16.000,12.000 C16.000,13.333 16.000,14.667 16.000,16.000 C14.667,16.000 13.333,16.000 12.000,16.000 C12.000,14.667 12.000,13.333 12.000,12.000 ZM18.000,12.000 C19.333,12.000 20.667,12.000 22.000,12.000 C22.000,13.333 22.000,14.667 22.000,16.000 C20.667,16.000 19.333,16.000 18.000,16.000 C18.000,14.667 18.000,13.333 18.000,12.000 Z"/>
</g>

<g id="icon-list" data-size="22 16">
    <path d="M-0.000,-0.000 C1.333,-0.000 2.667,-0.000 4.000,-0.000 C4.000,1.333 4.000,2.667 4.000,4.000 C2.667,4.000 1.333,4.000 -0.000,4.000 C-0.000,2.667 -0.000,1.333 -0.000,-0.000 ZM6.000,-0.000 C11.333,-0.000 16.667,-0.000 22.000,-0.000 C22.000,1.333 22.000,2.667 22.000,4.000 C16.667,4.000 11.333,4.000 6.000,4.000 C6.000,2.667 6.000,1.333 6.000,-0.000 ZM-0.000,6.000 C1.333,6.000 2.667,6.000 4.000,6.000 C4.000,7.333 4.000,8.667 4.000,10.000 C2.667,10.000 1.333,10.000 -0.000,10.000 C-0.000,8.667 -0.000,7.333 -0.000,6.000 ZM6.000,6.000 C11.333,6.000 16.667,6.000 22.000,6.000 C22.000,7.333 22.000,8.667 22.000,10.000 C16.667,10.000 11.333,10.000 6.000,10.000 C6.000,8.667 6.000,7.333 6.000,6.000 ZM-0.000,12.000 C1.333,12.000 2.667,12.000 4.000,12.000 C4.000,13.333 4.000,14.667 4.000,16.000 C2.667,16.000 1.333,16.000 -0.000,16.000 C-0.000,14.667 -0.000,13.333 -0.000,12.000 ZM6.000,12.000 C11.333,12.000 16.667,12.000 22.000,12.000 C22.000,13.333 22.000,14.667 22.000,16.000 C16.667,16.000 11.333,16.000 6.000,16.000 C6.000,14.667 6.000,13.333 6.000,12.000 Z"/>
</g>

<g id="icon-order" data-size="31 25">
    <path d="M28.569,-0.000 C29.379,0.602 30.190,1.205 31.000,1.807 C25.429,7.429 19.856,13.053 14.284,18.675 C11.448,15.964 8.611,13.253 5.774,10.542 C6.382,9.839 6.990,9.136 7.598,8.434 C7.699,8.434 7.801,8.434 7.902,8.434 C8.105,8.434 8.307,8.434 8.510,8.434 C10.434,10.442 12.360,12.450 14.284,14.458 C14.487,14.357 14.690,14.257 14.892,14.157 C19.451,9.438 24.010,4.718 28.569,-0.000 ZM-0.000,2.711 C7.496,2.711 14.994,2.711 22.490,2.711 C21.477,3.715 20.464,4.719 19.451,5.723 C13.981,5.723 8.509,5.723 3.039,5.723 C3.039,11.144 3.039,16.567 3.039,21.988 C9.927,21.988 16.818,21.988 23.706,21.988 C23.706,12.071 23.225,11.728 26.745,9.639 C26.745,14.758 26.745,19.880 26.745,25.000 C17.831,25.000 8.914,25.000 -0.000,25.000 C-0.000,17.571 -0.000,10.140 -0.000,2.711 Z"/>
</g>

<g id="icon-reload" data-size="40 31">
    <path fill-rule="evenodd" d="M35.000,10.343 C36.666,10.343 38.333,10.343 40.000,10.343 C37.917,12.491 35.833,14.640 33.750,16.789 C31.667,14.640 29.583,12.491 27.500,10.343 C29.166,10.343 30.833,10.343 32.500,10.343 C32.518,7.463 32.801,4.822 31.225,3.537 C29.859,2.422 28.009,2.608 25.575,2.608 C21.850,2.608 18.125,2.608 14.400,2.608 C11.973,2.608 10.136,2.424 8.775,3.537 C7.191,4.831 7.490,7.456 7.500,10.343 C6.667,10.343 5.833,10.343 5.000,10.343 C4.983,7.942 4.879,5.370 5.575,3.743 C6.320,2.002 7.882,0.694 9.825,0.185 C10.928,-0.104 12.498,0.030 13.825,0.030 C16.300,0.030 18.775,0.030 21.250,0.030 C23.158,0.030 25.067,0.030 26.975,0.030 C27.967,0.030 29.104,-0.068 29.950,0.133 C30.829,0.343 31.630,0.676 32.275,1.139 C33.706,2.165 34.620,3.631 34.975,5.780 C34.983,7.301 34.992,8.822 35.000,10.343 ZM7.500,20.656 C7.482,23.504 7.198,26.160 8.750,27.437 C10.197,28.627 11.914,28.391 14.450,28.391 C18.166,28.391 21.884,28.391 25.600,28.391 C28.123,28.391 29.811,28.622 31.250,27.437 C32.808,26.154 32.510,23.509 32.500,20.656 C33.333,20.656 34.167,20.656 35.000,20.656 C35.017,23.093 35.116,25.672 34.400,27.308 C33.651,29.017 32.094,30.310 30.175,30.814 C29.078,31.102 27.520,30.969 26.200,30.969 C23.742,30.969 21.283,30.969 18.825,30.969 C16.917,30.969 15.008,30.969 13.100,30.969 C12.145,30.969 11.040,31.072 10.200,30.892 C9.373,30.714 8.626,30.436 8.000,30.041 C6.481,29.080 5.436,27.561 5.050,25.426 C4.816,24.130 4.997,22.089 5.000,20.656 C3.333,20.656 1.666,20.656 -0.000,20.656 C0.317,20.321 0.633,19.986 0.950,19.650 C2.708,17.846 4.467,16.041 6.225,14.236 C6.250,14.236 6.275,14.236 6.300,14.236 C8.366,16.376 10.433,18.516 12.500,20.656 C10.833,20.656 9.166,20.656 7.500,20.656 Z"/>

</g>

<g id="icon-view-all" data-size="37 32">
    <path fill-rule="evenodd"  d="M15.353,3.705 C14.492,3.705 13.631,3.705 12.770,3.705 C12.757,2.681 12.610,1.238 13.063,0.648 C13.707,-0.190 16.027,0.119 17.468,0.119 C21.598,0.119 25.729,0.119 29.859,0.119 C32.082,0.119 36.404,-0.541 36.906,1.236 C36.906,5.528 36.906,9.821 36.906,14.112 C36.906,15.367 37.230,17.702 36.671,18.522 C36.259,19.128 34.868,19.402 33.794,19.110 C33.813,18.248 33.833,17.385 33.852,16.523 C34.710,16.292 34.381,14.389 34.381,13.348 C34.381,11.216 34.772,3.858 34.029,2.765 C32.956,2.450 31.215,2.589 29.859,2.589 C27.001,2.589 24.143,2.589 21.285,2.589 C19.483,2.589 17.060,2.355 15.647,2.824 C15.515,3.145 15.383,3.237 15.353,3.705 ZM28.450,24.167 C28.469,23.324 28.489,22.481 28.508,21.638 C29.000,21.634 29.045,21.526 29.272,21.286 C29.272,18.170 29.272,15.053 29.272,11.937 C29.272,10.910 29.545,8.985 29.096,8.292 C28.502,7.375 26.045,7.704 24.574,7.704 C21.226,7.704 17.878,7.704 14.531,7.704 C12.213,7.704 11.174,7.239 10.127,8.703 C9.344,8.684 8.561,8.664 7.778,8.644 C7.763,7.359 7.603,5.870 8.365,5.352 C9.205,4.781 11.609,5.117 12.887,5.117 C16.802,5.117 20.718,5.117 24.632,5.117 C26.452,5.117 30.968,4.702 31.621,5.763 C32.113,6.564 31.797,8.733 31.797,9.879 C31.797,13.152 31.797,16.425 31.797,19.698 C31.797,20.903 32.042,22.848 31.503,23.579 C30.979,24.290 29.698,24.182 28.450,24.167 ZM26.805,25.578 C27.781,25.535 28.707,25.482 29.037,26.107 C29.511,26.984 28.175,28.691 27.862,29.400 C27.461,30.308 27.201,31.262 26.335,31.693 C25.199,32.259 22.600,31.869 21.109,31.869 C16.920,31.850 12.730,31.830 8.541,31.810 C6.562,31.810 1.248,32.234 0.495,31.164 C-0.334,29.983 0.143,24.277 0.143,22.226 C0.143,19.466 -0.434,13.037 0.730,11.467 C1.111,10.954 1.806,10.485 2.492,10.291 C3.886,9.895 11.664,10.185 12.417,10.643 C13.672,11.408 13.623,13.030 14.590,14.054 C17.666,14.030 24.431,13.439 25.924,14.936 C27.380,16.395 26.827,22.592 26.805,25.578 ZM12.492,18.690 C12.492,19.492 12.492,20.295 12.492,21.098 C11.668,21.117 10.845,21.136 10.021,21.155 C10.041,21.957 10.060,22.760 10.079,23.562 C10.883,23.562 11.688,23.562 12.492,23.562 C12.492,24.422 12.492,25.282 12.492,26.142 C13.334,26.142 14.177,26.142 15.020,26.142 C15.020,25.282 15.020,24.422 15.020,23.562 C15.843,23.562 16.667,23.562 17.490,23.562 C17.471,22.741 17.452,21.919 17.433,21.098 C16.628,21.098 15.824,21.098 15.020,21.098 C15.020,20.295 15.020,19.492 15.020,18.690 C14.177,18.690 13.334,18.690 12.492,18.690 Z"/>
</g>

<g id="icon-search" data-size="26 32">
    <path fill-rule="evenodd"  d="M22.192,24.851 C22.261,26.772 22.238,28.336 20.377,28.398 C20.428,30.012 20.407,31.353 19.275,31.821 C18.087,32.313 16.076,31.461 14.997,31.199 C11.497,30.452 7.997,29.705 4.497,28.958 C3.180,28.640 1.108,28.639 0.413,27.714 C-0.126,26.995 0.069,25.177 0.089,23.980 C1.382,24.019 2.295,24.047 2.876,23.420 C2.893,22.841 2.775,22.669 2.552,22.362 C1.920,22.196 0.917,22.229 0.089,22.237 C0.089,21.635 0.089,21.034 0.089,20.432 C1.115,20.459 2.154,20.477 2.747,20.121 C2.790,19.851 2.833,19.582 2.876,19.312 C2.768,19.146 2.660,18.980 2.552,18.814 C1.920,18.649 0.917,18.682 0.089,18.690 C0.089,18.088 0.089,17.486 0.089,16.885 C0.924,16.898 1.910,16.916 2.552,16.760 C2.770,16.459 2.878,16.319 2.876,15.765 C2.768,15.599 2.660,15.432 2.552,15.267 C1.920,15.102 0.917,15.135 0.089,15.142 C0.089,14.541 0.089,13.939 0.089,13.338 C1.104,13.365 2.173,13.398 2.747,13.026 C2.909,12.531 2.864,12.161 2.617,11.782 C1.994,11.573 0.988,11.585 0.089,11.595 C0.089,10.993 0.089,10.392 0.089,9.790 C1.104,9.817 2.173,9.850 2.747,9.479 C2.828,9.234 2.947,8.898 2.811,8.607 C2.719,8.386 2.696,8.345 2.487,8.234 C2.082,7.904 0.815,8.028 0.089,8.047 C0.069,6.123 -0.328,1.224 0.737,0.455 C1.728,-0.261 4.482,0.081 6.117,0.081 C10.740,0.081 15.365,0.081 19.988,0.081 C21.963,0.081 24.861,-0.311 25.627,0.890 C26.269,1.896 25.886,4.527 25.886,5.994 C25.886,10.246 25.886,14.499 25.886,18.752 C25.887,20.310 26.293,23.168 25.562,24.166 C24.979,24.965 23.628,24.866 22.192,24.851 ZM1.904,3.629 C6.506,4.604 11.109,5.579 15.710,6.554 C17.158,6.904 19.434,6.896 20.118,7.985 C20.579,8.719 20.377,10.352 20.377,11.470 C20.377,14.167 20.377,16.864 20.377,19.561 C22.238,19.622 22.261,21.188 22.192,23.108 C22.818,23.108 23.445,23.108 24.072,23.108 C24.050,16.014 24.028,8.918 24.007,1.824 C16.640,1.844 9.271,1.865 1.904,1.886 C1.904,2.467 1.904,3.048 1.904,3.629 ZM10.265,12.466 C8.186,13.367 6.741,13.815 5.923,15.889 C4.523,19.438 7.798,23.726 11.756,23.046 C13.204,22.797 14.058,22.244 14.997,21.553 C16.180,22.411 18.137,25.254 20.118,24.789 C20.380,24.458 20.590,24.300 20.636,23.731 C19.863,21.994 17.528,21.405 15.905,20.432 C18.286,16.205 15.136,12.398 10.265,12.466 ZM10.590,14.209 C15.763,14.065 16.105,20.348 11.886,21.241 C9.294,21.790 6.758,19.492 7.543,16.822 C8.011,15.233 9.105,14.850 10.590,14.209 Z"/>
</g>

<g id="icon-funnel" data-size="16 16">
    <path fill-rule="evenodd"   d="M6.007,15.172 L6.007,7.578 L0.702,1.430 C0.418,1.082 0.450,0.367 1.183,0.367 L15.334,0.367 C16.023,0.367 16.183,0.999 15.816,1.430 L10.639,7.415 L10.639,12.114 C10.639,12.305 10.575,12.468 10.412,12.596 L7.101,15.654 C6.718,15.938 6.007,15.785 6.007,15.172 ZM2.600,1.656 L7.136,6.901 C7.232,7.029 7.295,7.160 7.295,7.320 L7.295,13.723 L9.353,11.856 L9.353,7.192 C9.353,7.032 9.417,6.901 9.513,6.773 L13.918,1.656 L2.600,1.656 L2.600,1.656 Z"/>

</g>

<g id="icon-hand" data-size="70 70">
    <path fill-rule="evenodd" d="M33.132,0.007 C51.264,-0.296 62.274,9.427 67.556,21.953 C70.833,29.726 70.820,41.069 67.331,48.676 C63.100,57.903 56.117,64.583 46.153,68.084 C43.387,69.057 40.378,69.238 37.099,69.801 C31.900,70.695 24.368,68.364 21.234,66.890 C11.634,62.375 4.975,55.611 1.628,44.869 C0.474,41.168 -0.573,35.430 0.355,30.537 C0.794,28.226 1.127,25.954 1.852,23.894 C5.470,13.615 12.562,6.369 22.431,2.321 C24.514,1.466 26.861,0.958 29.241,0.455 C30.538,0.305 31.835,0.156 33.132,0.007 ZM39.344,19.041 C38.820,19.166 38.296,19.290 37.772,19.415 C37.198,20.037 36.625,20.659 36.051,21.281 C34.280,22.948 32.509,24.615 30.738,26.282 C29.441,27.352 28.143,28.423 26.846,29.492 C25.561,31.712 28.978,34.137 31.636,33.374 C35.285,32.326 37.419,29.312 40.242,27.402 C44.849,29.660 48.425,33.397 51.841,36.882 C52.547,37.603 54.518,40.601 55.882,40.092 C56.736,39.735 57.384,38.875 58.052,38.300 C59.879,36.730 62.021,35.433 63.739,33.747 C63.785,31.836 62.541,30.461 61.868,29.119 C60.846,26.979 59.823,24.839 58.800,22.699 C58.279,21.676 58.093,19.794 56.705,19.639 C55.961,19.529 52.693,22.087 49.970,21.729 C45.754,21.174 43.285,19.776 39.344,19.041 ZM30.513,19.639 C29.291,19.838 28.069,20.037 26.846,20.236 C24.712,20.793 22.469,22.126 19.662,21.654 C18.814,21.505 17.966,21.356 17.118,21.206 C16.030,20.791 14.749,19.354 13.227,19.788 C12.073,20.117 11.771,22.190 11.281,23.222 C10.308,25.436 9.335,27.651 8.363,29.866 C7.745,31.161 6.763,32.379 6.567,34.046 C9.366,34.855 11.296,37.169 13.077,39.047 C14.648,37.529 16.220,36.011 17.792,34.493 C20.563,33.333 22.336,36.150 22.731,37.853 C25.600,37.777 27.377,38.935 27.595,41.436 C30.857,41.073 32.138,42.150 32.908,44.720 C36.022,44.664 37.092,45.584 37.622,48.079 C37.706,48.472 37.950,49.476 37.697,49.871 C36.753,51.342 33.771,52.844 33.207,54.499 C36.127,55.495 37.442,54.288 38.371,51.961 C41.191,52.222 42.632,51.431 42.936,48.751 C45.745,49.776 48.263,48.429 48.473,45.690 C51.989,46.236 54.603,43.951 52.739,40.689 C50.848,37.381 46.341,33.796 43.310,31.508 C42.564,30.945 40.281,28.765 39.718,29.417 C38.970,30.065 38.221,30.711 37.473,31.358 C34.867,33.344 30.045,37.060 26.472,33.374 C25.878,32.761 25.225,32.163 24.976,31.209 C24.811,30.581 24.982,29.436 25.200,29.044 C27.370,26.979 29.541,24.914 31.711,22.849 C32.439,22.234 34.603,20.719 34.180,20.012 C33.155,19.793 31.964,19.637 30.513,19.639 ZM18.540,35.688 C16.796,36.617 10.157,41.996 13.900,44.272 C14.336,44.537 15.324,44.728 15.996,44.496 C16.972,44.160 21.226,39.829 21.533,38.823 C22.159,36.773 20.438,35.634 18.540,35.688 ZM23.404,39.271 C21.719,40.248 14.990,45.589 18.764,47.855 C19.197,48.115 20.203,48.316 20.860,48.079 C21.845,47.724 26.065,43.475 26.397,42.481 C27.099,40.384 25.293,39.217 23.404,39.271 ZM28.717,42.406 C26.918,43.325 20.230,48.721 23.928,50.991 C24.525,51.357 25.609,51.468 26.323,51.140 C27.263,50.707 31.028,46.865 31.486,45.915 C32.381,44.056 30.803,42.348 28.717,42.406 ZM33.656,45.840 C31.822,46.715 25.124,52.182 28.792,54.424 C29.341,54.760 30.293,54.927 31.037,54.648 C32.010,54.284 36.043,50.171 36.425,49.199 C37.193,47.248 35.508,45.801 33.656,45.840 Z"/>

</g>

<g id="icon-compass" data-size="70 70">
    <path fill-rule="evenodd" fill="rgb(255, 255, 255)"
          d="M33.999,0.005 C36.932,-0.034 39.681,0.106 42.069,0.703 C44.014,1.189 45.879,1.641 47.613,2.331 C56.947,6.050 63.641,12.747 67.440,22.018 C68.236,23.962 68.823,26.090 69.327,28.358 C69.472,29.346 69.617,30.335 69.762,31.324 C69.957,32.430 70.104,34.811 69.907,36.006 C69.898,36.432 69.888,36.859 69.878,37.285 C69.772,38.283 69.665,39.282 69.559,40.280 C68.967,43.232 68.366,45.904 67.324,48.364 C63.158,58.199 55.624,65.239 44.972,68.575 C43.084,69.166 41.073,69.413 38.934,69.796 C37.957,69.864 36.979,69.932 36.002,70.000 C35.334,69.990 34.666,69.980 33.999,69.970 C33.077,69.818 32.161,69.944 31.328,69.796 C30.341,69.660 29.354,69.525 28.367,69.389 C25.739,68.805 23.348,68.075 21.139,67.121 C11.443,62.932 4.677,55.332 1.429,44.671 C0.281,40.903 -0.507,34.870 0.384,30.132 C0.815,27.837 1.156,25.622 1.922,23.647 C6.027,13.064 12.624,6.157 23.171,2.041 C25.299,1.211 27.644,0.797 30.138,0.325 C30.999,0.238 31.860,0.150 32.722,0.063 C33.147,0.044 33.573,0.025 33.999,0.005 ZM33.302,9.165 C33.302,11.007 33.302,12.849 33.302,14.691 C32.453,14.766 31.646,15.176 31.038,15.534 C27.901,17.380 25.352,21.521 27.409,26.235 C27.853,27.251 28.595,28.340 29.412,28.997 C29.656,29.193 30.855,29.948 30.922,30.161 C29.325,33.592 27.729,37.024 26.132,40.455 C24.516,40.455 22.900,40.455 21.284,40.455 C21.284,41.008 21.284,41.560 21.284,42.112 C22.619,42.112 23.955,42.112 25.290,42.112 C25.217,42.856 24.612,43.601 24.332,44.235 C23.316,46.426 22.300,48.617 21.284,50.807 C21.284,52.658 21.284,54.510 21.284,56.361 C21.294,57.728 21.304,59.095 21.313,60.461 C21.313,60.442 21.313,60.423 21.313,60.403 C24.158,54.307 27.003,48.209 29.848,42.112 C31.289,42.112 32.731,42.112 34.173,42.112 C34.173,42.704 34.173,43.295 34.173,43.886 C34.725,43.886 35.276,43.886 35.828,43.886 C35.837,43.295 35.847,42.704 35.857,42.112 C37.289,42.112 38.721,42.112 40.153,42.112 C42.998,48.218 45.843,54.326 48.687,60.433 C48.697,60.433 48.707,60.433 48.716,60.433 C48.716,57.215 48.716,53.996 48.716,50.778 C47.720,48.636 46.723,46.494 45.726,44.352 C45.428,43.674 44.804,42.900 44.710,42.112 C46.046,42.112 47.381,42.112 48.716,42.112 C48.716,41.560 48.716,41.008 48.716,40.455 C47.101,40.455 45.484,40.455 43.869,40.455 C42.272,36.985 40.675,33.514 39.079,30.044 C41.358,29.285 43.974,24.961 43.201,21.408 C42.843,19.765 42.218,18.532 41.343,17.424 C40.647,16.542 39.554,15.719 38.469,15.243 C37.879,15.039 37.289,14.836 36.699,14.632 C36.708,12.810 36.718,10.987 36.728,9.165 C35.586,9.165 34.444,9.165 33.302,9.165 ZM34.812,18.325 C38.024,18.292 40.515,21.399 39.108,24.665 C38.464,26.160 37.174,27.020 35.305,27.311 C32.303,27.778 29.645,24.292 30.748,21.350 C31.266,19.965 32.286,18.948 33.738,18.500 C34.096,18.442 34.454,18.383 34.812,18.325 ZM35.828,38.681 C35.276,38.681 34.725,38.681 34.173,38.681 C34.173,39.272 34.173,39.864 34.173,40.455 C33.653,40.460 30.866,40.544 30.661,40.397 C32.093,37.315 33.525,34.232 34.957,31.149 C34.996,31.149 35.034,31.149 35.073,31.149 C36.495,34.251 37.918,37.353 39.340,40.455 C38.189,40.455 37.037,40.455 35.886,40.455 C35.866,40.445 35.847,40.436 35.828,40.426 C35.828,39.844 35.828,39.262 35.828,38.681 Z"/>
</g>

<g id="icon-file" data-size="37 32">
    <path fill-rule="evenodd" d="M15.353,3.705 C14.492,3.705 13.631,3.705 12.770,3.705 C12.757,2.680 12.610,1.237 13.063,0.648 C13.707,-0.191 16.027,0.118 17.468,0.119 C21.598,0.119 25.729,0.119 29.859,0.119 C32.082,0.118 36.404,-0.542 36.906,1.235 C36.906,5.528 36.906,9.820 36.906,14.112 C36.906,15.366 37.230,17.701 36.671,18.522 C36.259,19.127 34.868,19.402 33.794,19.110 C33.813,18.247 33.833,17.385 33.852,16.523 C34.710,16.291 34.381,14.389 34.381,13.348 C34.381,11.215 34.772,3.857 34.029,2.765 C32.956,2.449 31.215,2.588 29.859,2.588 C27.001,2.588 24.143,2.588 21.285,2.588 C19.483,2.588 17.060,2.355 15.647,2.824 C15.515,3.145 15.383,3.236 15.353,3.705 ZM28.450,24.167 C28.469,23.324 28.489,22.481 28.508,21.638 C29.000,21.634 29.045,21.525 29.272,21.285 C29.272,18.170 29.272,15.053 29.272,11.937 C29.272,10.910 29.545,8.985 29.096,8.292 C28.502,7.375 26.045,7.703 24.574,7.703 C21.226,7.703 17.878,7.703 14.531,7.703 C12.213,7.703 11.174,7.238 10.127,8.703 C9.344,8.683 8.561,8.663 7.778,8.644 C7.763,7.358 7.603,5.870 8.365,5.352 C9.205,4.780 11.609,5.116 12.887,5.116 C16.802,5.116 20.718,5.116 24.632,5.116 C26.452,5.116 30.968,4.701 31.621,5.763 C32.113,6.563 31.797,8.733 31.797,9.878 C31.797,13.151 31.797,16.425 31.797,19.698 C31.797,20.902 32.042,22.847 31.503,23.578 C30.979,24.290 29.698,24.181 28.450,24.167 ZM26.805,25.577 C27.781,25.535 28.707,25.482 29.037,26.107 C29.511,26.983 28.175,28.691 27.862,29.399 C27.461,30.308 27.201,31.262 26.335,31.692 C25.199,32.258 22.600,31.869 21.109,31.868 C16.920,31.849 12.730,31.829 8.541,31.810 C6.562,31.810 1.248,32.233 0.495,31.163 C-0.334,29.983 0.143,24.276 0.143,22.226 C0.143,19.465 -0.434,13.036 0.730,11.466 C1.111,10.953 1.806,10.485 2.492,10.290 C3.886,9.895 11.664,10.184 12.417,10.643 C13.672,11.408 13.623,13.030 14.590,14.053 C17.666,14.030 24.431,13.439 25.924,14.935 C27.380,16.394 26.827,22.591 26.805,25.577 ZM12.492,18.689 C12.492,19.492 12.492,20.294 12.492,21.097 C11.668,21.116 10.845,21.135 10.021,21.154 C10.041,21.957 10.060,22.760 10.079,23.562 C10.883,23.562 11.688,23.562 12.492,23.562 C12.492,24.422 12.492,25.282 12.492,26.142 C13.334,26.142 14.177,26.142 15.020,26.142 C15.020,25.282 15.020,24.422 15.020,23.562 C15.843,23.562 16.667,23.562 17.490,23.562 C17.471,22.740 17.452,21.919 17.433,21.097 C16.628,21.097 15.824,21.097 15.020,21.097 C15.020,20.294 15.020,19.492 15.020,18.689 C14.177,18.689 13.334,18.689 12.492,18.689 Z"/>
</g>

<g id="icon-reload" data-size="40 31">
    <path fill-rule="evenodd" d="M35.000,10.343 C36.666,10.343 38.333,10.343 40.000,10.343 C37.917,12.491 35.833,14.640 33.750,16.788 C31.667,14.640 29.583,12.491 27.500,10.343 C29.166,10.343 30.833,10.343 32.500,10.343 C32.518,7.462 32.801,4.822 31.225,3.536 C29.858,2.422 28.009,2.608 25.575,2.608 C21.850,2.608 18.124,2.608 14.400,2.608 C11.973,2.608 10.136,2.424 8.775,3.536 C7.191,4.831 7.490,7.455 7.500,10.343 C6.667,10.343 5.833,10.343 5.000,10.343 C4.983,7.942 4.879,5.369 5.575,3.742 C6.320,2.001 7.882,0.693 9.825,0.185 C10.928,-0.104 12.498,0.030 13.825,0.030 C16.300,0.030 18.775,0.030 21.250,0.030 C23.158,0.030 25.067,0.030 26.975,0.030 C27.967,0.030 29.104,-0.069 29.950,0.133 C30.829,0.342 31.630,0.676 32.275,1.138 C33.706,2.164 34.620,3.631 34.975,5.779 C34.983,7.300 34.991,8.822 35.000,10.343 ZM7.500,20.656 C7.482,23.504 7.198,26.159 8.750,27.437 C10.197,28.627 11.914,28.390 14.450,28.390 C18.166,28.390 21.884,28.390 25.600,28.390 C28.123,28.390 29.811,28.621 31.250,27.437 C32.808,26.153 32.509,23.508 32.500,20.656 C33.333,20.656 34.167,20.656 35.000,20.656 C35.017,23.092 35.116,25.672 34.400,27.308 C33.651,29.016 32.094,30.310 30.175,30.814 C29.078,31.102 27.520,30.969 26.200,30.969 C23.742,30.969 21.283,30.969 18.825,30.969 C16.917,30.969 15.008,30.969 13.100,30.969 C12.145,30.969 11.039,31.072 10.200,30.891 C9.373,30.714 8.626,30.436 8.000,30.040 C6.481,29.080 5.435,27.560 5.050,25.425 C4.816,24.129 4.997,22.088 5.000,20.656 C3.333,20.656 1.666,20.656 -0.000,20.656 C0.316,20.320 0.633,19.985 0.950,19.650 C2.708,17.846 4.467,16.040 6.225,14.236 C6.250,14.236 6.275,14.236 6.300,14.236 C8.366,16.376 10.433,18.516 12.500,20.656 C10.833,20.656 9.166,20.656 7.500,20.656 Z"/>
</g>

<g id="icon-back" data-size="31 30">
    <path fill-rule="evenodd"  d="M15.492,-0.001 C15.587,0.037 15.618,0.117 15.689,0.176 C15.985,0.467 16.282,0.757 16.578,1.048 C17.437,1.890 18.297,2.733 19.156,3.575 C21.997,6.351 24.840,9.128 27.681,11.903 C28.627,12.830 29.573,13.757 30.519,14.684 C30.847,14.955 31.244,15.440 30.815,15.922 C30.429,16.356 29.938,15.974 29.680,15.720 C28.763,14.818 27.846,13.917 26.929,13.015 C23.129,9.292 19.328,5.567 15.529,1.844 C15.508,1.844 15.488,1.844 15.467,1.844 C11.659,5.580 7.851,9.317 4.043,13.053 C3.155,13.925 2.266,14.797 1.378,15.669 C1.097,15.901 0.607,16.419 0.181,15.909 C-0.295,15.338 0.272,14.917 0.576,14.608 C1.522,13.685 2.468,12.762 3.414,11.840 C7.439,7.894 11.466,3.946 15.492,-0.001 ZM20.563,2.223 C22.310,2.227 24.058,2.231 25.806,2.236 C25.818,2.244 25.831,2.252 25.843,2.261 C25.843,3.697 25.843,5.134 25.843,6.570 C25.843,7.344 25.927,8.040 25.300,8.175 C24.999,8.240 24.744,8.042 24.646,7.885 C24.499,7.649 24.535,7.209 24.535,6.823 C24.535,6.057 24.535,5.290 24.535,4.523 C24.535,4.249 24.609,3.734 24.498,3.537 C23.544,3.537 22.590,3.537 21.636,3.537 C21.341,3.537 20.659,3.612 20.439,3.512 C20.091,3.353 19.871,2.817 20.180,2.438 C20.274,2.323 20.420,2.292 20.563,2.223 ZM27.126,30.000 C24.116,30.000 21.105,30.000 18.095,30.000 C18.091,27.148 18.087,24.296 18.083,21.444 C18.066,21.432 18.050,21.419 18.033,21.406 C16.779,21.402 15.525,21.398 14.271,21.394 C13.952,21.394 13.141,21.314 12.926,21.432 C12.922,24.288 12.918,27.144 12.913,30.000 C9.903,30.000 6.893,30.000 3.883,30.000 C3.883,26.306 3.883,22.611 3.883,18.917 C3.883,18.209 3.883,17.502 3.883,16.794 C3.883,16.468 3.840,16.038 3.944,15.808 C4.032,15.614 4.246,15.480 4.487,15.442 C4.810,15.391 5.085,15.687 5.153,15.909 C5.157,16.769 5.162,17.628 5.166,18.487 C5.170,21.870 5.174,25.253 5.178,28.635 C5.194,28.648 5.211,28.660 5.227,28.673 C7.349,28.673 9.471,28.673 11.593,28.673 C11.606,28.665 11.618,28.656 11.630,28.648 C11.630,26.617 11.630,24.587 11.630,22.557 C11.630,21.979 11.630,21.402 11.630,20.825 C11.630,20.607 11.581,20.249 11.655,20.080 C13.485,20.080 15.315,20.080 17.145,20.080 C17.696,20.080 18.247,20.080 18.798,20.080 C18.974,20.080 19.247,20.045 19.378,20.105 C19.382,22.952 19.386,25.800 19.391,28.648 C19.399,28.660 19.407,28.673 19.415,28.686 C21.541,28.681 23.668,28.677 25.794,28.673 C25.806,28.656 25.818,28.639 25.831,28.622 C25.835,25.409 25.839,22.194 25.843,18.980 C25.843,18.412 25.843,17.843 25.843,17.274 C25.843,17.054 25.792,16.701 25.868,16.529 C25.962,16.314 26.226,16.030 26.595,16.112 C26.847,16.167 27.041,16.364 27.114,16.604 C27.118,17.548 27.122,18.492 27.126,19.435 C27.126,22.956 27.126,26.479 27.126,30.000 Z"/>
</g>

<symbol id="icon-heart" viewBox="0 0 50 50">
    <path stroke-width="2" d="M24.85,10.126c2.018-4.783,6.628-8.125,11.99-8.125c7.223,0,12.425,6.179,13.079,13.543
	c0,0,0.353,1.828-0.424,5.119c-1.058,4.482-3.545,8.464-6.898,11.503L24.85,48L7.402,32.165c-3.353-3.038-5.84-7.021-6.898-11.503
	c-0.777-3.291-0.424-5.119-0.424-5.119C0.734,8.179,5.936,2,13.159,2C18.522,2,22.832,5.343,24.85,10.126z"/>
</symbol>

</svg>

